EESchema Schematic File Version 2
LIBS:mcp23008-eight-relay-rescue
LIBS:power
LIBS:device
LIBS:transistors
LIBS:conn
LIBS:linear
LIBS:regul
LIBS:74xx
LIBS:cmos4000
LIBS:adc-dac
LIBS:memory
LIBS:xilinx
LIBS:microcontrollers
LIBS:dsp
LIBS:microchip
LIBS:analog_switches
LIBS:motorola
LIBS:texas
LIBS:intel
LIBS:audio
LIBS:interface
LIBS:digital-audio
LIBS:philips
LIBS:display
LIBS:cypress
LIBS:siliconi
LIBS:opto
LIBS:atmel
LIBS:contrib
LIBS:valves
LIBS:my-regulators
LIBS:my-relays
LIBS:my-power-supplies
LIBS:my-switches
LIBS:my-ICs
LIBS:mcp23008-eight-relay-cache
EELAYER 25 0
EELAYER END
$Descr A3 11693 16535 portrait
encoding utf-8
Sheet 1 1
Title ""
Date ""
Rev ""
Comp ""
Comment1 ""
Comment2 ""
Comment3 ""
Comment4 ""
$EndDescr
$Comp
L GND #PWR01
U 1 1 60ACE2B7
P 2500 10100
F 0 "#PWR01" H 2500 9850 50  0001 C CNN
F 1 "GND" H 2500 9950 50  0000 C CNN
F 2 "" H 2500 10100 50  0000 C CNN
F 3 "" H 2500 10100 50  0000 C CNN
	1    2500 10100
	1    0    0    -1  
$EndComp
$Comp
L MCP23008-RESCUE-mcp23008-eight-relay U1
U 1 1 60AF73BA
P 3600 8700
F 0 "U1" H 3600 8550 50  0000 C CNN
F 1 "MCP23008" H 3650 8750 50  0000 C CNN
F 2 "Housings_DIP:DIP-18_W7.62mm_LongPads" H 3600 8700 60  0001 C CNN
F 3 "" H 3600 8700 60  0000 C CNN
	1    3600 8700
	-1   0    0    -1  
$EndComp
$Comp
L GND #PWR02
U 1 1 60AF73C1
P 2200 8350
F 0 "#PWR02" H 2200 8100 50  0001 C CNN
F 1 "GND" H 2200 8200 50  0000 C CNN
F 2 "" H 2200 8350 50  0000 C CNN
F 3 "" H 2200 8350 50  0000 C CNN
	1    2200 8350
	1    0    0    -1  
$EndComp
$Comp
L VCC #PWR03
U 1 1 60AF9B36
P 2500 9100
F 0 "#PWR03" H 2500 8950 50  0001 C CNN
F 1 "VCC" H 2500 9250 50  0000 C CNN
F 2 "" H 2500 9100 50  0000 C CNN
F 3 "" H 2500 9100 50  0000 C CNN
	1    2500 9100
	1    0    0    -1  
$EndComp
$Comp
L VDD #PWR04
U 1 1 60AFB3EC
P 2900 9200
F 0 "#PWR04" H 2900 9050 50  0001 C CNN
F 1 "VDD" H 2900 9350 50  0000 C CNN
F 2 "" H 2900 9200 50  0000 C CNN
F 3 "" H 2900 9200 50  0000 C CNN
	1    2900 9200
	1    0    0    -1  
$EndComp
$Comp
L R R1
U 1 1 60C8E4D8
P 2900 9550
F 0 "R1" V 2980 9550 50  0000 C CNN
F 1 "4.7K" V 2900 9550 50  0000 C CNN
F 2 "Resistors_ThroughHole:Resistor_Horizontal_RM10mm" V 2830 9550 50  0001 C CNN
F 3 "" H 2900 9550 50  0000 C CNN
	1    2900 9550
	-1   0    0    1   
$EndComp
$Comp
L R R2
U 1 1 60C8E605
P 3100 9550
F 0 "R2" V 3180 9550 50  0000 C CNN
F 1 "4.7K" V 3100 9550 50  0000 C CNN
F 2 "Resistors_ThroughHole:Resistor_Horizontal_RM10mm" V 3030 9550 50  0001 C CNN
F 3 "" H 3100 9550 50  0000 C CNN
	1    3100 9550
	-1   0    0    1   
$EndComp
$Comp
L VDD #PWR05
U 1 1 60E1A1BB
P 3500 7700
F 0 "#PWR05" H 3500 7550 50  0001 C CNN
F 1 "VDD" H 3500 7850 50  0000 C CNN
F 2 "" H 3500 7700 50  0000 C CNN
F 3 "" H 3500 7700 50  0000 C CNN
	1    3500 7700
	1    0    0    -1  
$EndComp
$Comp
L VDD #PWR06
U 1 1 60E19F52
P 2650 7750
F 0 "#PWR06" H 2650 7600 50  0001 C CNN
F 1 "VDD" H 2650 7900 50  0000 C CNN
F 2 "" H 2650 7750 50  0000 C CNN
F 3 "" H 2650 7750 50  0000 C CNN
	1    2650 7750
	1    0    0    -1  
$EndComp
$Comp
L AddressSelector3 JP2
U 1 1 60E1B351
P 2400 7950
F 0 "JP2" H 2440 8040 50  0000 C CNN
F 1 "ADDRESS" H 2420 8110 50  0000 C CNN
F 2 "mySwitches:AdressSelector3" H 2400 7950 50  0001 C CNN
F 3 "" H 2400 7950 50  0000 C CNN
	1    2400 7950
	1    0    0    -1  
$EndComp
$Comp
L ULN2803A-RESCUE-mcp23008-eight-relay U2
U 1 1 60E306A5
P 4900 8450
F 0 "U2" H 4900 8975 50  0000 C CNN
F 1 "ULN2803A" H 4900 8900 50  0000 C CNN
F 2 "Housings_DIP:DIP-18_W7.62mm_LongPads" H 4950 7800 50  0001 L CNN
F 3 "" H 5000 8250 50  0001 C CNN
	1    4900 8450
	1    0    0    -1  
$EndComp
$Comp
L GND #PWR07
U 1 1 60E306AC
P 4900 9250
F 0 "#PWR07" H 4900 9000 50  0001 C CNN
F 1 "GND" H 4900 9100 50  0000 C CNN
F 2 "" H 4900 9250 50  0000 C CNN
F 3 "" H 4900 9250 50  0000 C CNN
	1    4900 9250
	1    0    0    -1  
$EndComp
$Comp
L VCC #PWR08
U 1 1 60E306B2
P 5400 8050
F 0 "#PWR08" H 5400 7900 50  0001 C CNN
F 1 "VCC" H 5400 8200 50  0000 C CNN
F 2 "" H 5400 8050 50  0000 C CNN
F 3 "" H 5400 8050 50  0000 C CNN
	1    5400 8050
	1    0    0    -1  
$EndComp
Wire Wire Line
	2600 9700 2400 9700
Wire Wire Line
	2400 9900 3100 9900
Wire Wire Line
	3100 9900 3400 9900
Wire Wire Line
	2400 9800 2900 9800
Wire Wire Line
	2900 9800 3500 9800
Wire Wire Line
	2400 10000 2500 10000
Wire Wire Line
	2500 10000 3600 10000
Wire Wire Line
	2500 10000 2500 10100
Wire Wire Line
	2900 9200 2900 9300
Wire Wire Line
	2900 9300 2900 9400
Wire Wire Line
	2400 9300 2600 9300
Wire Wire Line
	2600 9300 2900 9300
Wire Wire Line
	2900 9300 3100 9300
Wire Wire Line
	3100 9300 3100 9400
Connection ~ 2900 9300
Wire Wire Line
	2900 9700 2900 9800
Connection ~ 2900 9800
Wire Wire Line
	3100 9700 3100 9900
Connection ~ 3100 9900
Wire Wire Line
	6350 3900 6450 3900
Wire Wire Line
	6350 3300 6350 3600
Wire Wire Line
	6350 3600 6350 3900
Wire Wire Line
	6350 3300 7500 3300
Wire Wire Line
	7500 3300 7500 3900
Wire Wire Line
	7500 3900 7600 3900
Wire Wire Line
	7250 4000 7350 4000
Wire Wire Line
	7350 4000 7600 4000
Wire Wire Line
	6350 5050 6450 5050
Wire Wire Line
	6350 4450 6350 4750
Wire Wire Line
	6350 4750 6350 5050
Wire Wire Line
	6350 4450 7500 4450
Wire Wire Line
	7500 4450 7500 5050
Wire Wire Line
	7500 5050 7600 5050
Wire Wire Line
	7250 5150 7350 5150
Wire Wire Line
	7350 5150 7600 5150
Wire Wire Line
	6350 6200 6450 6200
Wire Wire Line
	6350 5600 6350 5900
Wire Wire Line
	6350 5900 6350 6200
Wire Wire Line
	6350 5600 7500 5600
Wire Wire Line
	7500 5600 7500 6200
Wire Wire Line
	7500 6200 7600 6200
Wire Wire Line
	7250 6300 7350 6300
Wire Wire Line
	7350 6300 7600 6300
Wire Wire Line
	6350 7350 6450 7350
Wire Wire Line
	6350 6750 6350 7050
Wire Wire Line
	6350 7050 6350 7350
Wire Wire Line
	6350 6750 7500 6750
Wire Wire Line
	7500 6750 7500 7350
Wire Wire Line
	7500 7350 7600 7350
Wire Wire Line
	7250 7450 7350 7450
Wire Wire Line
	7350 7450 7600 7450
Wire Wire Line
	6350 8500 6450 8500
Wire Wire Line
	6350 7900 6350 8200
Wire Wire Line
	6350 8200 6350 8500
Wire Wire Line
	6350 7900 7500 7900
Wire Wire Line
	7500 7900 7500 8500
Wire Wire Line
	7500 8500 7600 8500
Wire Wire Line
	7250 8600 7350 8600
Wire Wire Line
	7350 8600 7600 8600
Wire Wire Line
	6350 9650 6450 9650
Wire Wire Line
	6350 9050 6350 9350
Wire Wire Line
	6350 9350 6350 9650
Wire Wire Line
	6350 9050 7500 9050
Wire Wire Line
	7500 9050 7500 9650
Wire Wire Line
	7500 9650 7600 9650
Wire Wire Line
	7250 9750 7350 9750
Wire Wire Line
	7350 9750 7600 9750
Wire Wire Line
	6350 10800 6450 10800
Wire Wire Line
	6350 10200 6350 10500
Wire Wire Line
	6350 10500 6350 10800
Wire Wire Line
	6350 10200 7500 10200
Wire Wire Line
	7500 10200 7500 10800
Wire Wire Line
	7500 10800 7600 10800
Wire Wire Line
	7250 10900 7350 10900
Wire Wire Line
	7350 10900 7600 10900
Wire Wire Line
	6350 11950 6450 11950
Wire Wire Line
	6350 11350 6350 11650
Wire Wire Line
	6350 11650 6350 11950
Wire Wire Line
	6350 11350 7500 11350
Wire Wire Line
	7500 11350 7500 11950
Wire Wire Line
	7500 11950 7600 11950
Wire Wire Line
	7250 12050 7350 12050
Wire Wire Line
	7350 12050 7600 12050
Wire Wire Line
	2650 7750 2650 7950
Wire Wire Line
	2650 7950 2650 8100
Wire Wire Line
	2650 8100 2650 8250
Wire Wire Line
	2650 7950 2600 7950
Wire Wire Line
	2650 8100 2600 8100
Connection ~ 2650 7950
Wire Wire Line
	2650 8250 2600 8250
Connection ~ 2650 8100
Wire Wire Line
	2300 7950 2200 7950
Wire Wire Line
	2200 7950 2200 8100
Wire Wire Line
	2200 8100 2200 8250
Wire Wire Line
	2200 8250 2200 8350
Wire Wire Line
	2300 8250 2200 8250
Connection ~ 2200 8250
Wire Wire Line
	2300 8100 2200 8100
Connection ~ 2200 8100
Wire Wire Line
	3500 7700 3500 7800
Wire Wire Line
	2750 8300 2450 8300
Wire Wire Line
	2450 8000 2850 8000
Wire Wire Line
	3500 9800 3500 9400
Wire Wire Line
	3400 9900 3400 9400
Wire Wire Line
	3050 8400 2750 8400
Wire Wire Line
	4150 8250 4500 8250
Wire Wire Line
	4500 8350 4150 8350
Wire Wire Line
	4150 8450 4500 8450
Wire Wire Line
	4500 8550 4150 8550
Wire Wire Line
	4150 8650 4500 8650
Wire Wire Line
	4500 8750 4150 8750
Wire Wire Line
	4150 8850 4500 8850
Wire Wire Line
	4500 8950 4150 8950
Wire Wire Line
	4900 9250 4900 9150
Wire Wire Line
	5400 8050 5400 8150
Wire Wire Line
	5400 8150 5300 8150
Wire Wire Line
	6450 4200 5600 4200
Wire Wire Line
	5600 4200 5600 8950
Wire Wire Line
	5600 8950 5300 8950
Wire Wire Line
	5300 8850 5650 8850
Wire Wire Line
	5650 8850 5650 5350
Wire Wire Line
	5650 5350 6450 5350
Wire Wire Line
	5300 8750 5700 8750
Wire Wire Line
	5700 8750 5700 6500
Wire Wire Line
	5700 6500 6450 6500
Wire Wire Line
	6450 7650 5750 7650
Wire Wire Line
	5750 7650 5750 8650
Wire Wire Line
	5750 8650 5300 8650
Wire Wire Line
	6450 8800 5800 8800
Wire Wire Line
	5800 8800 5800 8550
Wire Wire Line
	5800 8550 5300 8550
Wire Wire Line
	5300 8450 5850 8450
Wire Wire Line
	5850 8450 5850 9950
Wire Wire Line
	5850 9950 6450 9950
Wire Wire Line
	5300 8350 5900 8350
Wire Wire Line
	5900 8350 5900 11100
Wire Wire Line
	5900 11100 6450 11100
Wire Wire Line
	6450 12250 5950 12250
Wire Wire Line
	5950 12250 5950 8250
Wire Wire Line
	5950 8250 5300 8250
$Comp
L CONN_01X02 P2
U 1 1 60E315D2
P 7800 3950
F 0 "P2" H 7800 4100 50  0000 C CNN
F 1 "OUT1" V 7900 3950 50  0000 C CNN
F 2 "Connect:bornier2" H 7800 3950 50  0001 C CNN
F 3 "" H 7800 3950 50  0000 C CNN
	1    7800 3950
	1    0    0    1   
$EndComp
$Comp
L CONN_01X02 P3
U 1 1 60E316B2
P 7800 5100
F 0 "P3" H 7800 5250 50  0000 C CNN
F 1 "OUT2" V 7900 5100 50  0000 C CNN
F 2 "Connect:bornier2" H 7800 5100 50  0001 C CNN
F 3 "" H 7800 5100 50  0000 C CNN
	1    7800 5100
	1    0    0    1   
$EndComp
$Comp
L CONN_01X02 P4
U 1 1 60E31732
P 7800 6250
F 0 "P4" H 7800 6400 50  0000 C CNN
F 1 "OUT3" V 7900 6250 50  0000 C CNN
F 2 "Connect:bornier2" H 7800 6250 50  0001 C CNN
F 3 "" H 7800 6250 50  0000 C CNN
	1    7800 6250
	1    0    0    1   
$EndComp
$Comp
L CONN_01X02 P5
U 1 1 60E3188E
P 7800 7400
F 0 "P5" H 7800 7550 50  0000 C CNN
F 1 "OUT4" V 7900 7400 50  0000 C CNN
F 2 "Connect:bornier2" H 7800 7400 50  0001 C CNN
F 3 "" H 7800 7400 50  0000 C CNN
	1    7800 7400
	1    0    0    1   
$EndComp
$Comp
L CONN_01X02 P6
U 1 1 60E31901
P 7800 8550
F 0 "P6" H 7800 8700 50  0000 C CNN
F 1 "OUT5" V 7900 8550 50  0000 C CNN
F 2 "Connect:bornier2" H 7800 8550 50  0001 C CNN
F 3 "" H 7800 8550 50  0000 C CNN
	1    7800 8550
	1    0    0    1   
$EndComp
$Comp
L CONN_01X02 P7
U 1 1 60E31977
P 7800 9700
F 0 "P7" H 7800 9850 50  0000 C CNN
F 1 "OUT6" V 7900 9700 50  0000 C CNN
F 2 "Connect:bornier2" H 7800 9700 50  0001 C CNN
F 3 "" H 7800 9700 50  0000 C CNN
	1    7800 9700
	1    0    0    1   
$EndComp
$Comp
L CONN_01X02 P8
U 1 1 60E319F0
P 7800 10850
F 0 "P8" H 7800 11000 50  0000 C CNN
F 1 "OUT7" V 7900 10850 50  0000 C CNN
F 2 "Connect:bornier2" H 7800 10850 50  0001 C CNN
F 3 "" H 7800 10850 50  0000 C CNN
	1    7800 10850
	1    0    0    1   
$EndComp
$Comp
L CONN_01X02 P9
U 1 1 60E31BFD
P 7800 12000
F 0 "P9" H 7800 12150 50  0000 C CNN
F 1 "OUT8" V 7900 12000 50  0000 C CNN
F 2 "Connect:bornier2" H 7800 12000 50  0001 C CNN
F 3 "" H 7800 12000 50  0000 C CNN
	1    7800 12000
	1    0    0    1   
$EndComp
$Comp
L FINDER-40.61 K1
U 1 1 60E2FF48
P 6850 3850
F 0 "K1" H 6800 4250 50  0000 C CNN
F 1 "FINDER-40.61" H 6850 3350 50  0000 C CNN
F 2 "myRelays:Relay_DPDT_Finder-40.61" H 6850 3850 50  0001 C CNN
F 3 "" H 6850 3850 50  0000 C CNN
	1    6850 3850
	1    0    0    -1  
$EndComp
Wire Wire Line
	6450 3600 6350 3600
Connection ~ 6350 3600
$Comp
L FINDER-40.61 K2
U 1 1 60E300D2
P 6850 5000
F 0 "K2" H 6800 5400 50  0000 C CNN
F 1 "FINDER-40.61" H 6850 4500 50  0000 C CNN
F 2 "myRelays:Relay_DPDT_Finder-40.61" H 6850 5000 50  0001 C CNN
F 3 "" H 6850 5000 50  0000 C CNN
	1    6850 5000
	1    0    0    -1  
$EndComp
$Comp
L FINDER-40.61 K3
U 1 1 60E301FC
P 6850 6150
F 0 "K3" H 6800 6550 50  0000 C CNN
F 1 "FINDER-40.61" H 6850 5650 50  0000 C CNN
F 2 "myRelays:Relay_DPDT_Finder-40.61" H 6850 6150 50  0001 C CNN
F 3 "" H 6850 6150 50  0000 C CNN
	1    6850 6150
	1    0    0    -1  
$EndComp
$Comp
L FINDER-40.61 K4
U 1 1 60E302C4
P 6850 7300
F 0 "K4" H 6800 7700 50  0000 C CNN
F 1 "FINDER-40.61" H 6850 6800 50  0000 C CNN
F 2 "myRelays:Relay_DPDT_Finder-40.61" H 6850 7300 50  0001 C CNN
F 3 "" H 6850 7300 50  0000 C CNN
	1    6850 7300
	1    0    0    -1  
$EndComp
$Comp
L FINDER-40.61 K5
U 1 1 60E30337
P 6850 8450
F 0 "K5" H 6800 8850 50  0000 C CNN
F 1 "FINDER-40.61" H 6850 7950 50  0000 C CNN
F 2 "myRelays:Relay_DPDT_Finder-40.61" H 6850 8450 50  0001 C CNN
F 3 "" H 6850 8450 50  0000 C CNN
	1    6850 8450
	1    0    0    -1  
$EndComp
$Comp
L FINDER-40.61 K6
U 1 1 60E303AD
P 6850 9600
F 0 "K6" H 6800 10000 50  0000 C CNN
F 1 "FINDER-40.61" H 6850 9100 50  0000 C CNN
F 2 "myRelays:Relay_DPDT_Finder-40.61" H 6850 9600 50  0001 C CNN
F 3 "" H 6850 9600 50  0000 C CNN
	1    6850 9600
	1    0    0    -1  
$EndComp
$Comp
L FINDER-40.61 K7
U 1 1 60E30426
P 6850 10750
F 0 "K7" H 6800 11150 50  0000 C CNN
F 1 "FINDER-40.61" H 6850 10250 50  0000 C CNN
F 2 "myRelays:Relay_DPDT_Finder-40.61" H 6850 10750 50  0001 C CNN
F 3 "" H 6850 10750 50  0000 C CNN
	1    6850 10750
	1    0    0    -1  
$EndComp
$Comp
L FINDER-40.61 K8
U 1 1 60E304A6
P 6850 11900
F 0 "K8" H 6800 12300 50  0000 C CNN
F 1 "FINDER-40.61" H 6850 11400 50  0000 C CNN
F 2 "myRelays:Relay_DPDT_Finder-40.61" H 6850 11900 50  0001 C CNN
F 3 "" H 6850 11900 50  0000 C CNN
	1    6850 11900
	1    0    0    -1  
$EndComp
$Comp
L VCC #PWR09
U 1 1 60E30525
P 6250 3250
F 0 "#PWR09" H 6250 3100 50  0001 C CNN
F 1 "VCC" H 6250 3400 50  0000 C CNN
F 2 "" H 6250 3250 50  0000 C CNN
F 3 "" H 6250 3250 50  0000 C CNN
	1    6250 3250
	1    0    0    -1  
$EndComp
Wire Wire Line
	6250 3250 6250 4100
Wire Wire Line
	6250 4100 6250 5250
Wire Wire Line
	6250 5250 6250 6400
Wire Wire Line
	6250 6400 6250 7550
Wire Wire Line
	6250 7550 6250 8700
Wire Wire Line
	6250 8700 6250 9850
Wire Wire Line
	6250 9850 6250 11000
Wire Wire Line
	6250 11000 6250 12150
Wire Wire Line
	6250 4100 6450 4100
Wire Wire Line
	6250 5250 6450 5250
Connection ~ 6250 4100
Wire Wire Line
	6250 6400 6450 6400
Connection ~ 6250 5250
Wire Wire Line
	6250 7550 6450 7550
Connection ~ 6250 6400
Wire Wire Line
	6250 8700 6450 8700
Connection ~ 6250 7550
Wire Wire Line
	6250 9850 6450 9850
Connection ~ 6250 8700
Wire Wire Line
	6250 11000 6450 11000
Connection ~ 6250 9850
Wire Wire Line
	6250 12150 6450 12150
Connection ~ 6250 11000
Wire Wire Line
	7250 3700 7350 3700
Wire Wire Line
	7350 3700 7350 4000
Connection ~ 7350 4000
Wire Wire Line
	6450 4750 6350 4750
Connection ~ 6350 4750
Wire Wire Line
	6450 5900 6350 5900
Connection ~ 6350 5900
Wire Wire Line
	7250 4850 7350 4850
Wire Wire Line
	7350 4850 7350 5150
Connection ~ 7350 5150
Wire Wire Line
	7250 6000 7350 6000
Wire Wire Line
	7350 6000 7350 6300
Connection ~ 7350 6300
Wire Wire Line
	7250 7150 7350 7150
Wire Wire Line
	7350 7150 7350 7450
Connection ~ 7350 7450
Wire Wire Line
	6450 7050 6350 7050
Connection ~ 6350 7050
Wire Wire Line
	6450 8200 6350 8200
Connection ~ 6350 8200
Wire Wire Line
	7250 8300 7350 8300
Wire Wire Line
	7350 8300 7350 8600
Connection ~ 7350 8600
Wire Wire Line
	7250 9450 7350 9450
Wire Wire Line
	7350 9450 7350 9750
Connection ~ 7350 9750
Wire Wire Line
	6450 9350 6350 9350
Connection ~ 6350 9350
Wire Wire Line
	6450 10500 6350 10500
Connection ~ 6350 10500
Wire Wire Line
	6350 11650 6450 11650
Connection ~ 6350 11650
Wire Wire Line
	7250 11750 7350 11750
Wire Wire Line
	7350 11750 7350 12050
Connection ~ 7350 12050
Wire Wire Line
	7250 10600 7350 10600
Wire Wire Line
	7350 10600 7350 10900
Connection ~ 7350 10900
$Comp
L VSS #PWR010
U 1 1 60E5C21A
P 3600 9900
F 0 "#PWR010" H 3600 9750 50  0001 C CNN
F 1 "VSS" H 3600 10050 50  0000 C CNN
F 2 "" H 3600 9900 50  0000 C CNN
F 3 "" H 3600 9900 50  0000 C CNN
	1    3600 9900
	1    0    0    -1  
$EndComp
Wire Wire Line
	3600 10000 3600 9900
Connection ~ 2500 10000
$Comp
L Conn_01x03 J?
U 1 1 6113F16B
P 2200 9300
F 0 "J?" H 2200 9500 50  0000 C CNN
F 1 "PWR" V 2300 9300 50  0000 C CNN
F 2 "" H 2200 9300 50  0001 C CNN
F 3 "" H 2200 9300 50  0001 C CNN
	1    2200 9300
	-1   0    0    1   
$EndComp
Wire Wire Line
	2500 9200 2400 9200
$Comp
L Conn_01x04 J?
U 1 1 6113F3CF
P 2200 9900
F 0 "J?" H 2200 10100 50  0000 C CNN
F 1 "IN" V 2300 9850 50  0000 C CNN
F 2 "" H 2200 9900 50  0001 C CNN
F 3 "" H 2200 9900 50  0001 C CNN
	1    2200 9900
	-1   0    0    1   
$EndComp
$Comp
L GND #PWR?
U 1 1 6113F641
P 2500 9500
F 0 "#PWR?" H 2500 9250 50  0001 C CNN
F 1 "GND" H 2500 9350 50  0000 C CNN
F 2 "" H 2500 9500 50  0000 C CNN
F 3 "" H 2500 9500 50  0000 C CNN
	1    2500 9500
	1    0    0    -1  
$EndComp
Wire Wire Line
	2500 9500 2500 9400
Wire Wire Line
	2500 9400 2400 9400
Wire Wire Line
	2750 8400 2750 8300
Wire Wire Line
	3050 8300 2800 8300
Wire Wire Line
	2800 8300 2800 8150
Wire Wire Line
	2800 8150 2450 8150
Wire Wire Line
	3050 8200 2850 8200
Wire Wire Line
	2850 8200 2850 8000
Text Notes 2100 8900 0    60   ~ 0
Jumper on J1 2&3\nfor 5V power\nElse power on 1&3
Wire Wire Line
	2600 9700 2600 9300
Connection ~ 2600 9300
Wire Wire Line
	2500 9200 2500 9100
$EndSCHEMATC
