EESchema Schematic File Version 2
LIBS:power
LIBS:device
LIBS:transistors
LIBS:conn
LIBS:linear
LIBS:regul
LIBS:74xx
LIBS:cmos4000
LIBS:adc-dac
LIBS:memory
LIBS:xilinx
LIBS:microcontrollers
LIBS:dsp
LIBS:microchip
LIBS:analog_switches
LIBS:motorola
LIBS:texas
LIBS:intel
LIBS:audio
LIBS:interface
LIBS:digital-audio
LIBS:philips
LIBS:display
LIBS:cypress
LIBS:siliconi
LIBS:opto
LIBS:atmel
LIBS:contrib
LIBS:valves
LIBS:my-regulators
LIBS:my-relays
LIBS:my-power-supplies
LIBS:dual-bistable-relay-cache
EELAYER 25 0
EELAYER END
$Descr A4 8268 11693 portrait
encoding utf-8
Sheet 1 1
Title ""
Date ""
Rev ""
Comp ""
Comment1 ""
Comment2 ""
Comment3 ""
Comment4 ""
$EndDescr
$Comp
L GND #PWR01
U 1 1 60ACE2B7
P 2250 5750
F 0 "#PWR01" H 2250 5500 50  0001 C CNN
F 1 "GND" H 2250 5600 50  0000 C CNN
F 2 "" H 2250 5750 50  0000 C CNN
F 3 "" H 2250 5750 50  0000 C CNN
	1    2250 5750
	1    0    0    -1  
$EndComp
$Comp
L CONN_01X02 P2
U 1 1 60ACE4F5
P 5850 4350
F 0 "P2" H 5850 4500 50  0000 C CNN
F 1 "OUT1" V 5950 4350 50  0000 C CNN
F 2 "Connect:bornier2" H 5850 4350 50  0001 C CNN
F 3 "" H 5850 4350 50  0000 C CNN
	1    5850 4350
	1    0    0    -1  
$EndComp
Wire Wire Line
	2250 5650 2250 5750
Wire Wire Line
	1700 5650 2250 5650
Wire Wire Line
	1700 5550 3950 5550
Wire Wire Line
	5550 4300 5650 4300
Wire Wire Line
	3000 4400 5650 4400
Text GLabel 2400 4900 1    60   Input ~ 0
RESET-1
Text GLabel 2550 4900 1    60   Input ~ 0
SET-1
Wire Wire Line
	2400 5550 2400 4900
Connection ~ 2400 5550
$Comp
L L293D U1
U 1 1 60AE6097
P 4550 6100
F 0 "U1" H 4550 6100 60  0000 C CNN
F 1 "L293D" H 4550 6350 60  0000 C CNN
F 2 "Housings_DIP:DIP-16_W7.62mm_LongPads" H 4550 6100 60  0001 C CNN
F 3 "" H 4550 6100 60  0000 C CNN
	1    4550 6100
	1    0    0    -1  
$EndComp
Wire Wire Line
	5250 5300 5250 5400
Wire Wire Line
	5250 5400 5150 5400
Wire Wire Line
	3550 6400 3550 6800
Wire Wire Line
	3550 6800 3950 6800
Wire Wire Line
	3850 6000 3850 6300
Wire Wire Line
	3850 6000 3950 6000
Wire Wire Line
	3950 6200 3850 6200
Connection ~ 3850 6200
Wire Wire Line
	5250 6000 5150 6000
Wire Wire Line
	5250 6200 5150 6200
Connection ~ 5250 6200
Wire Wire Line
	2750 5450 2750 6650
Wire Wire Line
	2750 6650 3950 6650
Wire Wire Line
	3050 6500 3950 6500
Wire Wire Line
	3100 5700 3950 5700
Wire Wire Line
	3000 3750 3200 3750
Wire Wire Line
	3000 3450 3200 3450
Wire Wire Line
	4000 3850 5550 3850
Wire Wire Line
	4000 3550 4100 3550
Wire Wire Line
	3050 4050 3200 4050
Wire Wire Line
	3100 3950 3200 3950
$Comp
L OMRON-G5RL-U1A-E K1
U 1 1 60AE60C2
P 3600 3700
F 0 "K1" H 3550 4100 50  0000 C CNN
F 1 "OMRON-G5RL-U1A-E" H 3600 3200 50  0000 C CNN
F 2 "myRelays:Relay_SPST_Omron-G5RL-U1A-E" H 3600 3700 50  0001 C CNN
F 3 "" H 3600 3700 50  0000 C CNN
	1    3600 3700
	1    0    0    -1  
$EndComp
Connection ~ 4100 3850
Wire Wire Line
	3100 5700 3100 3950
Wire Wire Line
	3050 4050 3050 6500
$Comp
L GND #PWR02
U 1 1 60AE60DC
P 3850 6300
F 0 "#PWR02" H 3850 6050 50  0001 C CNN
F 1 "GND" H 3850 6150 50  0000 C CNN
F 2 "" H 3850 6300 50  0000 C CNN
F 3 "" H 3850 6300 50  0000 C CNN
	1    3850 6300
	1    0    0    -1  
$EndComp
$Comp
L GND #PWR03
U 1 1 60AE60E2
P 5250 6300
F 0 "#PWR03" H 5250 6050 50  0001 C CNN
F 1 "GND" H 5250 6150 50  0000 C CNN
F 2 "" H 5250 6300 50  0000 C CNN
F 3 "" H 5250 6300 50  0000 C CNN
	1    5250 6300
	1    0    0    -1  
$EndComp
$Comp
L +5V #PWR04
U 1 1 60AE60E8
P 5250 5300
F 0 "#PWR04" H 5250 5150 50  0001 C CNN
F 1 "+5V" H 5250 5440 50  0000 C CNN
F 2 "" H 5250 5300 50  0000 C CNN
F 3 "" H 5250 5300 50  0000 C CNN
	1    5250 5300
	1    0    0    -1  
$EndComp
Wire Wire Line
	3000 3450 3000 4400
Connection ~ 3000 3750
Wire Wire Line
	1700 5450 2750 5450
Wire Wire Line
	2550 5450 2550 4900
Connection ~ 2550 5450
Wire Wire Line
	5250 6000 5250 6300
$Comp
L OMRON-G5RL-U1A-E K2
U 1 1 60AE6779
P 3600 2250
F 0 "K2" H 3550 2650 50  0000 C CNN
F 1 "OMRON-G5RL-U1A-E" H 3600 1750 50  0000 C CNN
F 2 "myRelays:Relay_SPST_Omron-G5RL-U1A-E" H 3600 2250 50  0001 C CNN
F 3 "" H 3600 2250 50  0000 C CNN
	1    3600 2250
	1    0    0    -1  
$EndComp
Wire Wire Line
	4100 3550 4100 3850
$Comp
L CONN_01X02 P3
U 1 1 60AE68E6
P 5850 2900
F 0 "P3" H 5850 3050 50  0000 C CNN
F 1 "OUT2" V 5950 2900 50  0000 C CNN
F 2 "Connect:bornier2" H 5850 2900 50  0001 C CNN
F 3 "" H 5850 2900 50  0000 C CNN
	1    5850 2900
	1    0    0    1   
$EndComp
Wire Wire Line
	5550 2850 5650 2850
Wire Wire Line
	3000 2950 5650 2950
Wire Wire Line
	4100 2400 4100 2100
Wire Wire Line
	4100 2100 4000 2100
Connection ~ 4100 2400
Wire Wire Line
	3000 2000 3000 2950
Wire Wire Line
	3000 2000 3200 2000
Wire Wire Line
	3200 2300 3000 2300
Connection ~ 3000 2300
Wire Wire Line
	1700 5350 2800 5350
Wire Wire Line
	2800 5350 2800 7100
Wire Wire Line
	2800 7100 5350 7100
Wire Wire Line
	5350 7100 5350 6650
Wire Wire Line
	5350 6650 5150 6650
Wire Wire Line
	1700 5250 2850 5250
Wire Wire Line
	2850 4900 2850 7150
Wire Wire Line
	2850 7150 5450 7150
Wire Wire Line
	5450 7150 5450 5550
Wire Wire Line
	5450 5550 5150 5550
Text GLabel 2700 4900 1    60   Input ~ 0
RESET-2
Text GLabel 2850 4900 1    60   Input ~ 0
SET-2
Wire Wire Line
	2700 4900 2700 5350
Connection ~ 2700 5350
Connection ~ 2850 5250
$Comp
L +5V #PWR05
U 1 1 60AE6BDE
P 2050 4500
F 0 "#PWR05" H 2050 4350 50  0001 C CNN
F 1 "+5V" H 2050 4640 50  0000 C CNN
F 2 "" H 2050 4500 50  0000 C CNN
F 3 "" H 2050 4500 50  0000 C CNN
	1    2050 4500
	1    0    0    -1  
$EndComp
Wire Wire Line
	2050 4500 2050 5050
Wire Wire Line
	2050 5050 1700 5050
Text GLabel 2250 4900 1    60   Input ~ 0
ENABLE
Wire Wire Line
	2250 4900 2250 5150
Wire Wire Line
	1700 5150 3700 5150
Wire Wire Line
	3200 2600 3100 2600
Wire Wire Line
	3100 2600 3100 3100
Wire Wire Line
	3100 3100 5350 3100
Wire Wire Line
	5350 3100 5350 5700
Wire Wire Line
	5350 5700 5150 5700
Wire Wire Line
	3200 2500 3050 2500
Wire Wire Line
	3050 2500 3050 3150
Wire Wire Line
	3050 3150 5400 3150
Wire Wire Line
	5400 3150 5400 6500
Wire Wire Line
	5400 6500 5150 6500
Wire Wire Line
	5150 6800 5250 6800
Wire Wire Line
	5250 6800 5250 7050
Wire Wire Line
	5250 7050 3700 7050
Wire Wire Line
	3700 7050 3700 5150
Wire Wire Line
	3700 5400 3950 5400
Connection ~ 3700 5400
Connection ~ 2250 5150
$Comp
L VCC #PWR06
U 1 1 60AE71A4
P 1900 4350
F 0 "#PWR06" H 1900 4200 50  0001 C CNN
F 1 "VCC" H 1900 4500 50  0000 C CNN
F 2 "" H 1900 4350 50  0000 C CNN
F 3 "" H 1900 4350 50  0000 C CNN
	1    1900 4350
	1    0    0    -1  
$EndComp
$Comp
L VCC #PWR07
U 1 1 60AE725C
P 3550 6400
F 0 "#PWR07" H 3550 6250 50  0001 C CNN
F 1 "VCC" H 3550 6550 50  0000 C CNN
F 2 "" H 3550 6400 50  0000 C CNN
F 3 "" H 3550 6400 50  0000 C CNN
	1    3550 6400
	1    0    0    -1  
$EndComp
Wire Wire Line
	1700 4550 2050 4550
Connection ~ 2050 4550
Wire Wire Line
	1900 4450 1700 4450
Wire Wire Line
	5550 3850 5550 4300
Wire Wire Line
	4000 2400 5550 2400
Wire Wire Line
	5550 2400 5550 2850
$Comp
L Conn_01x03 J1
U 1 1 6113DE69
P 1500 4550
F 0 "J1" H 1500 4750 50  0000 C CNN
F 1 "PWR" V 1600 4550 50  0000 C CNN
F 2 "Pin_Headers:Pin_Header_Straight_1x03_Pitch2.54mm" H 1500 4550 50  0001 C CNN
F 3 "" H 1500 4550 50  0001 C CNN
	1    1500 4550
	-1   0    0    1   
$EndComp
$Comp
L GND #PWR08
U 1 1 6113DED5
P 1800 4750
F 0 "#PWR08" H 1800 4500 50  0001 C CNN
F 1 "GND" H 1800 4600 50  0000 C CNN
F 2 "" H 1800 4750 50  0000 C CNN
F 3 "" H 1800 4750 50  0000 C CNN
	1    1800 4750
	1    0    0    -1  
$EndComp
Wire Wire Line
	1800 4750 1800 4650
Wire Wire Line
	1800 4650 1700 4650
Text Notes 1350 4100 0    60   ~ 0
Jumper on J1 2&3\nfor 5V power\nElse power on 1&3
$Comp
L Conn_01x07 J2
U 1 1 6113E453
P 1500 5350
F 0 "J2" H 1500 5750 50  0000 C CNN
F 1 "IN" V 1600 5350 50  0000 C CNN
F 2 "Pin_Headers:Pin_Header_Straight_1x07_Pitch2.54mm" H 1500 5350 50  0001 C CNN
F 3 "" H 1500 5350 50  0001 C CNN
	1    1500 5350
	-1   0    0    1   
$EndComp
Wire Wire Line
	1900 4350 1900 4450
$EndSCHEMATC
