(export (version D)
  (design
    (source /home/riton/projects/arduino-relay-modules/kicad/step-up-bistable-relay/step-up-bistable-relay.sch)
    (date "dim. 04 juil. 2021 16:40:41 CEST")
    (tool "Eeschema 4.0.2+dfsg1-stable")
    (sheet (number 1) (name /) (tstamps /)
      (title_block
        (title)
        (company)
        (rev)
        (date)
        (source step-up-bistable-relay.sch)
        (comment (number 1) (value ""))
        (comment (number 2) (value ""))
        (comment (number 3) (value ""))
        (comment (number 4) (value "")))))
  (components
    (comp (ref R2)
      (value 390)
      (footprint Resistors_ThroughHole:Resistor_Horizontal_RM10mm)
      (libsource (lib device) (part R))
      (sheetpath (names /) (tstamps /))
      (tstamp 60ACE149))
    (comp (ref R1)
      (value 390)
      (footprint Resistors_ThroughHole:Resistor_Horizontal_RM10mm)
      (libsource (lib device) (part R))
      (sheetpath (names /) (tstamps /))
      (tstamp 60ACE150))
    (comp (ref D2)
      (value 1N4148)
      (footprint Diodes_ThroughHole:Diode_DO-35_SOD27_Horizontal_RM10)
      (libsource (lib device) (part D))
      (sheetpath (names /) (tstamps /))
      (tstamp 60ACE157))
    (comp (ref D1)
      (value 1N4148)
      (footprint Diodes_ThroughHole:Diode_DO-35_SOD27_Horizontal_RM10)
      (libsource (lib device) (part D))
      (sheetpath (names /) (tstamps /))
      (tstamp 60ACE15E))
    (comp (ref Q2)
      (value 2N2222)
      (footprint TO_SOT_Packages_THT:TO-92_Inline_Wide)
      (libsource (lib transistors) (part PN2222A))
      (sheetpath (names /) (tstamps /))
      (tstamp 60ACE165))
    (comp (ref Q1)
      (value 2N2222)
      (footprint TO_SOT_Packages_THT:TO-92_Inline_Wide)
      (libsource (lib transistors) (part PN2222A))
      (sheetpath (names /) (tstamps /))
      (tstamp 60ACE16C))
    (comp (ref K1)
      (value OMRON-G5RL-K1A-E)
      (footprint myRelays:Relay_SPST_Omron-G5RL-K1A-E)
      (libsource (lib my-relays) (part OMRON-G5RL-K1A-E))
      (sheetpath (names /) (tstamps /))
      (tstamp 60ACE17F))
    (comp (ref P2)
      (value OUT)
      (footprint Connect:bornier2)
      (libsource (lib conn) (part CONN_01X02))
      (sheetpath (names /) (tstamps /))
      (tstamp 60ACE487))
    (comp (ref P1)
      (value IN)
      (footprint Pin_Headers:Pin_Header_Straight_1x05)
      (libsource (lib conn) (part CONN_01X05))
      (sheetpath (names /) (tstamps /))
      (tstamp 60AD1319))
    (comp (ref U1)
      (value XR2981-MODULE)
      (footprint myPowerSupplies:XR2981-MODULE)
      (libsource (lib my-power-supplies) (part XR2981-MODULE))
      (sheetpath (names /) (tstamps /))
      (tstamp 60AF5E87)))
  (libparts
    (libpart (lib conn) (part CONN_01X02)
      (description "Connector 01x02")
      (footprints
        (fp Pin_Header_Straight_1X02)
        (fp Pin_Header_Angled_1X02)
        (fp Socket_Strip_Straight_1X02)
        (fp Socket_Strip_Angled_1X02))
      (fields
        (field (name Reference) P)
        (field (name Value) CONN_01X02))
      (pins
        (pin (num 1) (name P1) (type passive))
        (pin (num 2) (name P2) (type passive))))
    (libpart (lib conn) (part CONN_01X05)
      (description "Connector 01x05")
      (footprints
        (fp Pin_Header_Straight_1X05)
        (fp Pin_Header_Angled_1X05)
        (fp Socket_Strip_Straight_1X05)
        (fp Socket_Strip_Angled_1X05))
      (fields
        (field (name Reference) P)
        (field (name Value) CONN_01X05))
      (pins
        (pin (num 1) (name P1) (type passive))
        (pin (num 2) (name P2) (type passive))
        (pin (num 3) (name P3) (type passive))
        (pin (num 4) (name P4) (type passive))
        (pin (num 5) (name P5) (type passive))))
    (libpart (lib device) (part D)
      (description Diode)
      (footprints
        (fp Diode_*)
        (fp D-Pak_TO252AA)
        (fp *SingleDiode)
        (fp *_Diode_*)
        (fp *SingleDiode*))
      (fields
        (field (name Reference) D)
        (field (name Value) D))
      (pins
        (pin (num 1) (name K) (type passive))
        (pin (num 2) (name A) (type passive))))
    (libpart (lib my-relays) (part OMRON-G5RL-K1A-E)
      (description "Dual coil SPST relay")
      (fields
        (field (name Reference) K)
        (field (name Value) OMRON-G5RL-K1A-E))
      (pins
        (pin (num 1) (name 1) (type input))
        (pin (num 2) (name 2) (type input))
        (pin (num 3) (name 3) (type input))
        (pin (num O1) (name O1) (type passive))
        (pin (num O2) (name O2) (type passive))
        (pin (num P1) (name P1) (type passive))
        (pin (num P2) (name P2) (type passive))))
    (libpart (lib transistors) (part PN2222A)
      (description "40V Vce, 1A Ic, NPN, General Purpose Transistor, TO-92")
      (docs http://www.fairchildsemi.com/ds/PN/PN2222A.pdf)
      (footprints
        (fp TO-92*))
      (fields
        (field (name Reference) Q)
        (field (name Value) PN2222A))
      (pins
        (pin (num 1) (name E) (type passive))
        (pin (num 2) (name B) (type input))
        (pin (num 3) (name C) (type passive))))
    (libpart (lib device) (part R)
      (description Resistor)
      (footprints
        (fp R_*)
        (fp Resistor_*))
      (fields
        (field (name Reference) R)
        (field (name Value) R))
      (pins
        (pin (num 1) (name ~) (type passive))
        (pin (num 2) (name ~) (type passive))))
    (libpart (lib my-power-supplies) (part XR2981-MODULE)
      (description "MT3608 adjustable module board")
      (fields
        (field (name Reference) U)
        (field (name Value) XR2981-MODULE))
      (pins
        (pin (num 1) (name +Vin) (type input))
        (pin (num 2) (name -Vin) (type input))
        (pin (num 3) (name -Vout) (type output))
        (pin (num 4) (name +Vout) (type output)))))
  (libraries
    (library (logical transistors)
      (uri /usr/share/kicad/library/transistors.lib))
    (library (logical my-relays)
      (uri /mnt/sdc1/riton/kicad/library/my-relays.lib))
    (library (logical my-power-supplies)
      (uri /mnt/sdc1/riton/kicad/library/my-power-supplies.lib))
    (library (logical conn)
      (uri /usr/share/kicad/library/conn.lib))
    (library (logical device)
      (uri /usr/share/kicad/library/device.lib)))
  (nets
    (net (code 1) (name "Net-(K1-PadP1)")
      (node (ref P2) (pin 2))
      (node (ref K1) (pin P1))
      (node (ref K1) (pin P2)))
    (net (code 2) (name GND)
      (node (ref U1) (pin 3))
      (node (ref U1) (pin 2))
      (node (ref P1) (pin 1))
      (node (ref Q2) (pin 1))
      (node (ref Q1) (pin 1)))
    (net (code 3) (name SET)
      (node (ref R2) (pin 2))
      (node (ref P1) (pin 2)))
    (net (code 4) (name "Net-(Q1-Pad2)")
      (node (ref R2) (pin 1))
      (node (ref Q1) (pin 2)))
    (net (code 5) (name "Net-(Q2-Pad2)")
      (node (ref R1) (pin 1))
      (node (ref Q2) (pin 2)))
    (net (code 6) (name "Net-(D2-Pad2)")
      (node (ref K1) (pin 3))
      (node (ref D2) (pin 2))
      (node (ref Q2) (pin 3)))
    (net (code 7) (name VCC)
      (node (ref P1) (pin 4))
      (node (ref U1) (pin 1)))
    (net (code 8) (name RESET)
      (node (ref R1) (pin 2))
      (node (ref P1) (pin 3)))
    (net (code 9) (name "Net-(K1-PadO1)")
      (node (ref K1) (pin O2))
      (node (ref K1) (pin O1))
      (node (ref P2) (pin 1)))
    (net (code 10) (name "Net-(D1-Pad2)")
      (node (ref D1) (pin 2))
      (node (ref K1) (pin 1))
      (node (ref Q1) (pin 3)))
    (net (code 11) (name +5V)
      (node (ref U1) (pin 4))
      (node (ref P1) (pin 5))
      (node (ref D2) (pin 1))
      (node (ref D1) (pin 1))
      (node (ref K1) (pin 2)))))