EESchema Schematic File Version 2
LIBS:power
LIBS:device
LIBS:transistors
LIBS:conn
LIBS:linear
LIBS:regul
LIBS:74xx
LIBS:cmos4000
LIBS:adc-dac
LIBS:memory
LIBS:xilinx
LIBS:microcontrollers
LIBS:dsp
LIBS:microchip
LIBS:analog_switches
LIBS:motorola
LIBS:texas
LIBS:intel
LIBS:audio
LIBS:interface
LIBS:digital-audio
LIBS:philips
LIBS:display
LIBS:cypress
LIBS:siliconi
LIBS:opto
LIBS:atmel
LIBS:contrib
LIBS:valves
LIBS:my-microcontrollers
LIBS:my-misc-modules
LIBS:my-ICs
LIBS:my-switches
LIBS:quad-bistable-relay-cache
EELAYER 25 0
EELAYER END
$Descr A4 8268 11693 portrait
encoding utf-8
Sheet 1 1
Title ""
Date ""
Rev ""
Comp ""
Comment1 ""
Comment2 ""
Comment3 ""
Comment4 ""
$EndDescr
$Comp
L GND #PWR01
U 1 1 5C56FCFF
P 1300 6650
F 0 "#PWR01" H 1300 6400 50  0001 C CNN
F 1 "GND" H 1300 6500 50  0000 C CNN
F 2 "" H 1300 6650 50  0000 C CNN
F 3 "" H 1300 6650 50  0000 C CNN
	1    1300 6650
	1    0    0    -1  
$EndComp
Wire Wire Line
	1300 6150 1300 6300
Wire Wire Line
	1300 6300 1300 6450
Wire Wire Line
	1300 6450 1300 6650
Wire Wire Line
	1300 6150 1400 6150
Wire Wire Line
	1400 6300 1300 6300
Connection ~ 1300 6300
Wire Wire Line
	1300 6450 1400 6450
Connection ~ 1300 6450
$Comp
L PCF8574 U1
U 1 1 5C5981E7
P 2750 5700
F 0 "U1" H 2700 5700 50  0000 L CNN
F 1 "PCF8574" H 2500 5450 50  0000 L CNN
F 2 "Housings_DIP:DIP-16_W7.62mm_LongPads" H 2750 5700 50  0001 C CNN
F 3 "" H 2750 5700 50  0000 C CNN
	1    2750 5700
	1    0    0    -1  
$EndComp
$Comp
L GND #PWR02
U 1 1 5C598324
P 2750 6500
F 0 "#PWR02" H 2750 6250 50  0001 C CNN
F 1 "GND" H 2750 6350 50  0000 C CNN
F 2 "" H 2750 6500 50  0000 C CNN
F 3 "" H 2750 6500 50  0000 C CNN
	1    2750 6500
	1    0    0    -1  
$EndComp
$Comp
L R R8
U 1 1 60C8A8A8
P 4000 9200
F 0 "R8" V 4080 9200 50  0000 C CNN
F 1 "680" V 4000 9200 50  0000 C CNN
F 2 "Resistors_ThroughHole:Resistor_Horizontal_RM10mm" V 3930 9200 50  0001 C CNN
F 3 "" H 4000 9200 50  0000 C CNN
	1    4000 9200
	0    1    1    0   
$EndComp
$Comp
L R R7
U 1 1 60C8A8AF
P 4000 8800
F 0 "R7" V 4080 8800 50  0000 C CNN
F 1 "680" V 4000 8800 50  0000 C CNN
F 2 "Resistors_ThroughHole:Resistor_Horizontal_RM10mm" V 3930 8800 50  0001 C CNN
F 3 "" H 4000 8800 50  0000 C CNN
	1    4000 8800
	0    1    1    0   
$EndComp
$Comp
L D D8
U 1 1 60C8A8B6
P 4750 8150
F 0 "D8" H 4750 8250 50  0000 C CNN
F 1 "1N4148" H 4750 8050 50  0000 C CNN
F 2 "Diodes_ThroughHole:Diode_DO-35_SOD27_Horizontal_RM10" H 4750 8150 50  0001 C CNN
F 3 "" H 4750 8150 50  0000 C CNN
	1    4750 8150
	0    1    1    0   
$EndComp
$Comp
L D D4
U 1 1 60C8A8BD
P 4350 8150
F 0 "D4" H 4350 8250 50  0000 C CNN
F 1 "1N4148" H 4350 8050 50  0000 C CNN
F 2 "Diodes_ThroughHole:Diode_DO-35_SOD27_Horizontal_RM10" H 4350 8150 50  0001 C CNN
F 3 "" H 4350 8150 50  0000 C CNN
	1    4350 8150
	0    1    1    0   
$EndComp
$Comp
L PN2222A Q8
U 1 1 60C8A8C4
P 4850 8800
F 0 "Q8" H 5050 8875 50  0000 L CNN
F 1 "2N2222" H 5050 8800 50  0000 L CNN
F 2 "TO_SOT_Packages_THT:TO-92_Inline_Wide" H 5050 8725 50  0001 L CIN
F 3 "" H 4850 8800 50  0000 L CNN
	1    4850 8800
	1    0    0    -1  
$EndComp
$Comp
L PN2222A Q4
U 1 1 60C8A8CB
P 4450 9200
F 0 "Q4" H 4650 9275 50  0000 L CNN
F 1 "2N2222" H 4650 9200 50  0000 L CNN
F 2 "TO_SOT_Packages_THT:TO-92_Inline_Wide" H 4650 9125 50  0001 L CIN
F 3 "" H 4450 9200 50  0000 L CNN
	1    4450 9200
	1    0    0    -1  
$EndComp
$Comp
L GND #PWR03
U 1 1 60C8A8D2
P 4550 9600
F 0 "#PWR03" H 4550 9350 50  0001 C CNN
F 1 "GND" H 4550 9450 50  0000 C CNN
F 2 "" H 4550 9600 50  0000 C CNN
F 3 "" H 4550 9600 50  0000 C CNN
	1    4550 9600
	1    0    0    -1  
$EndComp
$Comp
L OMRON-G5RL-K1A-E K4
U 1 1 60C8A8D8
P 5950 7550
F 0 "K4" H 5900 7950 50  0000 C CNN
F 1 "OMRON-G5RL-K1A-E" H 5945 6750 50  0000 C CNN
F 2 "myRelays:Relay_SPST_Omron-G5RL-K1A-E" H 5950 7550 50  0001 C CNN
F 3 "" H 5950 7550 50  0000 C CNN
	1    5950 7550
	1    0    0    -1  
$EndComp
$Comp
L CONN_01X02 P5
U 1 1 60C8A8DF
P 7100 7750
F 0 "P5" H 7100 7900 50  0000 C CNN
F 1 "OUT4" V 7200 7750 50  0000 C CNN
F 2 "Connect:bornier2" H 7100 7750 50  0001 C CNN
F 3 "" H 7100 7750 50  0000 C CNN
	1    7100 7750
	1    0    0    -1  
$EndComp
$Comp
L R R6
U 1 1 60C8A8E6
P 4000 7100
F 0 "R6" V 4080 7100 50  0000 C CNN
F 1 "680" V 4000 7100 50  0000 C CNN
F 2 "Resistors_ThroughHole:Resistor_Horizontal_RM10mm" V 3930 7100 50  0001 C CNN
F 3 "" H 4000 7100 50  0000 C CNN
	1    4000 7100
	0    1    1    0   
$EndComp
$Comp
L R R5
U 1 1 60C8A8ED
P 4000 6700
F 0 "R5" V 4080 6700 50  0000 C CNN
F 1 "680" V 4000 6700 50  0000 C CNN
F 2 "Resistors_ThroughHole:Resistor_Horizontal_RM10mm" V 3930 6700 50  0001 C CNN
F 3 "" H 4000 6700 50  0000 C CNN
	1    4000 6700
	0    1    1    0   
$EndComp
$Comp
L D D7
U 1 1 60C8A8F4
P 4750 6050
F 0 "D7" H 4750 6150 50  0000 C CNN
F 1 "1N4148" H 4750 5950 50  0000 C CNN
F 2 "Diodes_ThroughHole:Diode_DO-35_SOD27_Horizontal_RM10" H 4750 6050 50  0001 C CNN
F 3 "" H 4750 6050 50  0000 C CNN
	1    4750 6050
	0    1    1    0   
$EndComp
$Comp
L D D3
U 1 1 60C8A8FB
P 4350 6050
F 0 "D3" H 4350 6150 50  0000 C CNN
F 1 "1N4148" H 4350 5950 50  0000 C CNN
F 2 "Diodes_ThroughHole:Diode_DO-35_SOD27_Horizontal_RM10" H 4350 6050 50  0001 C CNN
F 3 "" H 4350 6050 50  0000 C CNN
	1    4350 6050
	0    1    1    0   
$EndComp
$Comp
L PN2222A Q7
U 1 1 60C8A902
P 4850 6700
F 0 "Q7" H 5050 6775 50  0000 L CNN
F 1 "2N2222" H 5050 6700 50  0000 L CNN
F 2 "TO_SOT_Packages_THT:TO-92_Inline_Wide" H 5050 6625 50  0001 L CIN
F 3 "" H 4850 6700 50  0000 L CNN
	1    4850 6700
	1    0    0    -1  
$EndComp
$Comp
L PN2222A Q3
U 1 1 60C8A909
P 4450 7100
F 0 "Q3" H 4650 7175 50  0000 L CNN
F 1 "2N2222" H 4650 7100 50  0000 L CNN
F 2 "TO_SOT_Packages_THT:TO-92_Inline_Wide" H 4650 7025 50  0001 L CIN
F 3 "" H 4450 7100 50  0000 L CNN
	1    4450 7100
	1    0    0    -1  
$EndComp
$Comp
L GND #PWR04
U 1 1 60C8A910
P 4550 7500
F 0 "#PWR04" H 4550 7250 50  0001 C CNN
F 1 "GND" H 4550 7350 50  0000 C CNN
F 2 "" H 4550 7500 50  0000 C CNN
F 3 "" H 4550 7500 50  0000 C CNN
	1    4550 7500
	1    0    0    -1  
$EndComp
$Comp
L OMRON-G5RL-K1A-E K3
U 1 1 60C8A916
P 5950 5450
F 0 "K3" H 5900 5850 50  0000 C CNN
F 1 "OMRON-G5RL-K1A-E" H 5945 4650 50  0000 C CNN
F 2 "myRelays:Relay_SPST_Omron-G5RL-K1A-E" H 5950 5450 50  0001 C CNN
F 3 "" H 5950 5450 50  0000 C CNN
	1    5950 5450
	1    0    0    -1  
$EndComp
$Comp
L CONN_01X02 P4
U 1 1 60C8A91D
P 7100 5650
F 0 "P4" H 7100 5800 50  0000 C CNN
F 1 "OUT3" V 7200 5650 50  0000 C CNN
F 2 "Connect:bornier2" H 7100 5650 50  0001 C CNN
F 3 "" H 7100 5650 50  0000 C CNN
	1    7100 5650
	1    0    0    -1  
$EndComp
Wire Wire Line
	5300 4900 5300 5200
Wire Wire Line
	5300 5200 5300 5500
Wire Wire Line
	6750 4900 5300 4900
Wire Wire Line
	6750 5700 6750 4900
Wire Wire Line
	6900 5700 6750 5700
Wire Wire Line
	6450 5300 6450 5600
Connection ~ 6450 5300
Wire Wire Line
	6450 5600 6350 5600
Connection ~ 4750 5800
Wire Wire Line
	6800 5600 6900 5600
Wire Wire Line
	5300 5500 5550 5500
Wire Wire Line
	6350 5300 6450 5300
Wire Wire Line
	6450 5300 6800 5300
Wire Wire Line
	5300 5200 5550 5200
Connection ~ 4350 5800
Connection ~ 4550 7400
Wire Wire Line
	4550 7400 4950 7400
Wire Wire Line
	4150 7100 4250 7100
Wire Wire Line
	4550 7300 4550 7400
Wire Wire Line
	4550 7400 4550 7500
Wire Wire Line
	4550 5700 4550 6400
Wire Wire Line
	4550 6400 4550 6900
Wire Wire Line
	4150 6700 4650 6700
Wire Wire Line
	4950 7400 4950 6900
Wire Wire Line
	4950 6100 4950 6400
Wire Wire Line
	4950 6400 4950 6500
Wire Wire Line
	4750 6200 4750 6400
Wire Wire Line
	4750 6400 4950 6400
Connection ~ 4950 6400
Wire Wire Line
	4350 5700 4350 5800
Wire Wire Line
	4350 5800 4350 5900
Wire Wire Line
	4750 5800 4750 5900
Wire Wire Line
	4350 6200 4350 6400
Wire Wire Line
	4350 6400 4550 6400
Connection ~ 4550 6400
Wire Wire Line
	6800 5300 6800 5600
Connection ~ 5300 5200
Wire Wire Line
	4350 7900 4750 7900
Wire Wire Line
	4750 7900 5550 7900
Wire Wire Line
	5300 7000 5300 7300
Wire Wire Line
	5300 7300 5300 7600
Wire Wire Line
	6750 7000 5300 7000
Wire Wire Line
	6750 7800 6750 7000
Wire Wire Line
	6900 7800 6750 7800
Wire Wire Line
	6450 7400 6450 7700
Connection ~ 6450 7400
Wire Wire Line
	6450 7700 6350 7700
Connection ~ 4750 7900
Wire Wire Line
	4550 7800 5550 7800
Wire Wire Line
	5550 8200 4950 8200
Wire Wire Line
	6800 7700 6900 7700
Wire Wire Line
	5300 7600 5550 7600
Wire Wire Line
	6350 7400 6450 7400
Wire Wire Line
	6450 7400 6800 7400
Wire Wire Line
	5300 7300 5550 7300
Connection ~ 4350 7900
Connection ~ 4550 9500
Wire Wire Line
	4550 9500 4950 9500
Wire Wire Line
	4150 9200 4250 9200
Wire Wire Line
	4550 9400 4550 9500
Wire Wire Line
	4550 9500 4550 9600
Wire Wire Line
	4550 7800 4550 8500
Wire Wire Line
	4550 8500 4550 9000
Wire Wire Line
	4150 8800 4650 8800
Wire Wire Line
	4950 9500 4950 9000
Wire Wire Line
	4950 8200 4950 8500
Wire Wire Line
	4950 8500 4950 8600
Wire Wire Line
	4750 8300 4750 8500
Wire Wire Line
	4750 8500 4950 8500
Connection ~ 4950 8500
Wire Wire Line
	4350 7800 4350 7900
Wire Wire Line
	4350 7900 4350 8000
Wire Wire Line
	4750 7900 4750 8000
Wire Wire Line
	4350 8300 4350 8500
Wire Wire Line
	4350 8500 4550 8500
Connection ~ 4550 8500
Wire Wire Line
	6800 7400 6800 7700
Connection ~ 5300 7300
$Comp
L R R4
U 1 1 60C8A972
P 4000 5000
F 0 "R4" V 4080 5000 50  0000 C CNN
F 1 "680" V 4000 5000 50  0000 C CNN
F 2 "Resistors_ThroughHole:Resistor_Horizontal_RM10mm" V 3930 5000 50  0001 C CNN
F 3 "" H 4000 5000 50  0000 C CNN
	1    4000 5000
	0    1    1    0   
$EndComp
$Comp
L R R3
U 1 1 60C8A979
P 4000 4600
F 0 "R3" V 4080 4600 50  0000 C CNN
F 1 "680" V 4000 4600 50  0000 C CNN
F 2 "Resistors_ThroughHole:Resistor_Horizontal_RM10mm" V 3930 4600 50  0001 C CNN
F 3 "" H 4000 4600 50  0000 C CNN
	1    4000 4600
	0    1    1    0   
$EndComp
$Comp
L D D6
U 1 1 60C8A980
P 4750 3950
F 0 "D6" H 4750 4050 50  0000 C CNN
F 1 "1N4148" H 4750 3850 50  0000 C CNN
F 2 "Diodes_ThroughHole:Diode_DO-35_SOD27_Horizontal_RM10" H 4750 3950 50  0001 C CNN
F 3 "" H 4750 3950 50  0000 C CNN
	1    4750 3950
	0    1    1    0   
$EndComp
$Comp
L D D2
U 1 1 60C8A987
P 4350 3950
F 0 "D2" H 4350 4050 50  0000 C CNN
F 1 "1N4148" H 4350 3850 50  0000 C CNN
F 2 "Diodes_ThroughHole:Diode_DO-35_SOD27_Horizontal_RM10" H 4350 3950 50  0001 C CNN
F 3 "" H 4350 3950 50  0000 C CNN
	1    4350 3950
	0    1    1    0   
$EndComp
$Comp
L PN2222A Q6
U 1 1 60C8A98E
P 4850 4600
F 0 "Q6" H 5050 4675 50  0000 L CNN
F 1 "2N2222" H 5050 4600 50  0000 L CNN
F 2 "TO_SOT_Packages_THT:TO-92_Inline_Wide" H 5050 4525 50  0001 L CIN
F 3 "" H 4850 4600 50  0000 L CNN
	1    4850 4600
	1    0    0    -1  
$EndComp
$Comp
L PN2222A Q2
U 1 1 60C8A995
P 4450 5000
F 0 "Q2" H 4650 5075 50  0000 L CNN
F 1 "2N2222" H 4650 5000 50  0000 L CNN
F 2 "TO_SOT_Packages_THT:TO-92_Inline_Wide" H 4650 4925 50  0001 L CIN
F 3 "" H 4450 5000 50  0000 L CNN
	1    4450 5000
	1    0    0    -1  
$EndComp
$Comp
L GND #PWR05
U 1 1 60C8A99C
P 4550 5400
F 0 "#PWR05" H 4550 5150 50  0001 C CNN
F 1 "GND" H 4550 5250 50  0000 C CNN
F 2 "" H 4550 5400 50  0000 C CNN
F 3 "" H 4550 5400 50  0000 C CNN
	1    4550 5400
	1    0    0    -1  
$EndComp
Connection ~ 4750 3700
Connection ~ 4350 3700
Connection ~ 4550 5300
Wire Wire Line
	4550 5300 4950 5300
Wire Wire Line
	4150 5000 4250 5000
Wire Wire Line
	4550 5200 4550 5300
Wire Wire Line
	4550 5300 4550 5400
Wire Wire Line
	4550 3600 4550 4300
Wire Wire Line
	4550 4300 4550 4800
Wire Wire Line
	4150 4600 4650 4600
Wire Wire Line
	4950 5300 4950 4800
Wire Wire Line
	4950 4000 4950 4300
Wire Wire Line
	4950 4300 4950 4400
Wire Wire Line
	4750 4100 4750 4300
Wire Wire Line
	4750 4300 4950 4300
Connection ~ 4950 4300
Wire Wire Line
	4350 3600 4350 3700
Wire Wire Line
	4350 3700 4350 3800
Wire Wire Line
	4750 3700 4750 3800
Wire Wire Line
	4350 4100 4350 4300
Wire Wire Line
	4350 4300 4550 4300
Connection ~ 4550 4300
$Comp
L R R2
U 1 1 60C8A9B8
P 4000 2900
F 0 "R2" V 4080 2900 50  0000 C CNN
F 1 "680" V 4000 2900 50  0000 C CNN
F 2 "Resistors_ThroughHole:Resistor_Horizontal_RM10mm" V 3930 2900 50  0001 C CNN
F 3 "" H 4000 2900 50  0000 C CNN
	1    4000 2900
	0    1    1    0   
$EndComp
$Comp
L R R1
U 1 1 60C8A9BF
P 4000 2500
F 0 "R1" V 4080 2500 50  0000 C CNN
F 1 "680" V 4000 2500 50  0000 C CNN
F 2 "Resistors_ThroughHole:Resistor_Horizontal_RM10mm" V 3930 2500 50  0001 C CNN
F 3 "" H 4000 2500 50  0000 C CNN
	1    4000 2500
	0    1    1    0   
$EndComp
$Comp
L D D5
U 1 1 60C8A9C6
P 4750 1850
F 0 "D5" H 4750 1950 50  0000 C CNN
F 1 "1N4148" H 4750 1750 50  0000 C CNN
F 2 "Diodes_ThroughHole:Diode_DO-35_SOD27_Horizontal_RM10" H 4750 1850 50  0001 C CNN
F 3 "" H 4750 1850 50  0000 C CNN
	1    4750 1850
	0    1    1    0   
$EndComp
$Comp
L D D1
U 1 1 60C8A9CD
P 4350 1850
F 0 "D1" H 4350 1950 50  0000 C CNN
F 1 "1N4148" H 4350 1750 50  0000 C CNN
F 2 "Diodes_ThroughHole:Diode_DO-35_SOD27_Horizontal_RM10" H 4350 1850 50  0001 C CNN
F 3 "" H 4350 1850 50  0000 C CNN
	1    4350 1850
	0    1    1    0   
$EndComp
$Comp
L PN2222A Q5
U 1 1 60C8A9D4
P 4850 2500
F 0 "Q5" H 5050 2575 50  0000 L CNN
F 1 "2N2222" H 5050 2500 50  0000 L CNN
F 2 "TO_SOT_Packages_THT:TO-92_Inline_Wide" H 5050 2425 50  0001 L CIN
F 3 "" H 4850 2500 50  0000 L CNN
	1    4850 2500
	1    0    0    -1  
$EndComp
$Comp
L PN2222A Q1
U 1 1 60C8A9DB
P 4450 2900
F 0 "Q1" H 4650 2975 50  0000 L CNN
F 1 "2N2222" H 4650 2900 50  0000 L CNN
F 2 "TO_SOT_Packages_THT:TO-92_Inline_Wide" H 4650 2825 50  0001 L CIN
F 3 "" H 4450 2900 50  0000 L CNN
	1    4450 2900
	1    0    0    -1  
$EndComp
$Comp
L GND #PWR06
U 1 1 60C8A9E2
P 4550 3300
F 0 "#PWR06" H 4550 3050 50  0001 C CNN
F 1 "GND" H 4550 3150 50  0000 C CNN
F 2 "" H 4550 3300 50  0000 C CNN
F 3 "" H 4550 3300 50  0000 C CNN
	1    4550 3300
	1    0    0    -1  
$EndComp
Connection ~ 4750 1600
Connection ~ 4350 1600
Connection ~ 4550 3200
Wire Wire Line
	4550 3200 4950 3200
Wire Wire Line
	4150 2900 4250 2900
Wire Wire Line
	4550 3100 4550 3200
Wire Wire Line
	4550 3200 4550 3300
Wire Wire Line
	4550 1500 4550 2200
Wire Wire Line
	4550 2200 4550 2700
Wire Wire Line
	4150 2500 4650 2500
Wire Wire Line
	4950 3200 4950 2700
Wire Wire Line
	4950 1900 4950 2200
Wire Wire Line
	4950 2200 4950 2300
Wire Wire Line
	4750 2000 4750 2200
Wire Wire Line
	4750 2200 4950 2200
Connection ~ 4950 2200
Wire Wire Line
	4350 1500 4350 1600
Wire Wire Line
	4350 1600 4350 1700
Wire Wire Line
	4750 1600 4750 1700
Wire Wire Line
	4350 2000 4350 2200
Wire Wire Line
	4350 2200 4550 2200
Connection ~ 4550 2200
$Comp
L OMRON-G5RL-K1A-E K2
U 1 1 60C8A9FE
P 5950 3350
F 0 "K2" H 5900 3750 50  0000 C CNN
F 1 "OMRON-G5RL-K1A-E" H 5945 2550 50  0000 C CNN
F 2 "myRelays:Relay_SPST_Omron-G5RL-K1A-E" H 5950 3350 50  0001 C CNN
F 3 "" H 5950 3350 50  0000 C CNN
	1    5950 3350
	1    0    0    -1  
$EndComp
$Comp
L CONN_01X02 P3
U 1 1 60C8AA05
P 7100 3550
F 0 "P3" H 7100 3700 50  0000 C CNN
F 1 "OUT2" V 7200 3550 50  0000 C CNN
F 2 "Connect:bornier2" H 7100 3550 50  0001 C CNN
F 3 "" H 7100 3550 50  0000 C CNN
	1    7100 3550
	1    0    0    -1  
$EndComp
Wire Wire Line
	5300 2800 5300 3100
Wire Wire Line
	5300 3100 5300 3400
Wire Wire Line
	6750 2800 5300 2800
Wire Wire Line
	6750 3600 6750 2800
Wire Wire Line
	6900 3600 6750 3600
Wire Wire Line
	6450 3200 6450 3500
Connection ~ 6450 3200
Wire Wire Line
	6450 3500 6350 3500
Wire Wire Line
	5550 4000 4950 4000
Wire Wire Line
	6800 3500 6900 3500
Wire Wire Line
	5300 3400 5550 3400
Wire Wire Line
	6350 3200 6450 3200
Wire Wire Line
	6450 3200 6800 3200
Wire Wire Line
	5300 3100 5550 3100
Wire Wire Line
	6800 3200 6800 3500
Connection ~ 5300 3100
$Comp
L OMRON-G5RL-K1A-E K1
U 1 1 60C8AA1C
P 5950 1250
F 0 "K1" H 5900 1650 50  0000 C CNN
F 1 "OMRON-G5RL-K1A-E" H 5945 450 50  0000 C CNN
F 2 "myRelays:Relay_SPST_Omron-G5RL-K1A-E" H 5950 1250 50  0001 C CNN
F 3 "" H 5950 1250 50  0000 C CNN
	1    5950 1250
	1    0    0    -1  
$EndComp
$Comp
L CONN_01X02 P2
U 1 1 60C8AA23
P 7100 1450
F 0 "P2" H 7100 1600 50  0000 C CNN
F 1 "OUT1" V 7200 1450 50  0000 C CNN
F 2 "Connect:bornier2" H 7100 1450 50  0001 C CNN
F 3 "" H 7100 1450 50  0000 C CNN
	1    7100 1450
	1    0    0    -1  
$EndComp
Wire Wire Line
	4350 1600 4750 1600
Wire Wire Line
	4750 1600 5550 1600
Wire Wire Line
	5300 700  5300 1000
Wire Wire Line
	5300 1000 5300 1300
Wire Wire Line
	6750 700  5300 700 
Wire Wire Line
	6750 1500 6750 700 
Wire Wire Line
	6900 1500 6750 1500
Wire Wire Line
	6450 1100 6450 1400
Connection ~ 6450 1100
Wire Wire Line
	6450 1400 6350 1400
Wire Wire Line
	4550 1500 5550 1500
Wire Wire Line
	5550 1900 4950 1900
Wire Wire Line
	6800 1400 6900 1400
Wire Wire Line
	5300 1300 5550 1300
Wire Wire Line
	6350 1100 6450 1100
Wire Wire Line
	6450 1100 6800 1100
Wire Wire Line
	5300 1000 5550 1000
Wire Wire Line
	6800 1100 6800 1400
Connection ~ 5300 1000
Wire Wire Line
	4550 3600 5550 3600
Wire Wire Line
	4350 3700 4750 3700
Wire Wire Line
	4750 3700 5550 3700
Wire Wire Line
	4550 5700 5550 5700
Wire Wire Line
	4350 5800 4750 5800
Wire Wire Line
	4750 5800 5550 5800
Wire Wire Line
	5550 6100 4950 6100
$Comp
L VCC #PWR07
U 1 1 60C8AA44
P 4350 1500
F 0 "#PWR07" H 4350 1350 50  0001 C CNN
F 1 "VCC" H 4350 1650 50  0000 C CNN
F 2 "" H 4350 1500 50  0000 C CNN
F 3 "" H 4350 1500 50  0000 C CNN
	1    4350 1500
	1    0    0    -1  
$EndComp
$Comp
L VCC #PWR08
U 1 1 60C8AA4A
P 4350 3600
F 0 "#PWR08" H 4350 3450 50  0001 C CNN
F 1 "VCC" H 4350 3750 50  0000 C CNN
F 2 "" H 4350 3600 50  0000 C CNN
F 3 "" H 4350 3600 50  0000 C CNN
	1    4350 3600
	1    0    0    -1  
$EndComp
$Comp
L VCC #PWR09
U 1 1 60C8AA50
P 4350 5700
F 0 "#PWR09" H 4350 5550 50  0001 C CNN
F 1 "VCC" H 4350 5850 50  0000 C CNN
F 2 "" H 4350 5700 50  0000 C CNN
F 3 "" H 4350 5700 50  0000 C CNN
	1    4350 5700
	1    0    0    -1  
$EndComp
$Comp
L VCC #PWR010
U 1 1 60C8AA56
P 4350 7800
F 0 "#PWR010" H 4350 7650 50  0001 C CNN
F 1 "VCC" H 4350 7950 50  0000 C CNN
F 2 "" H 4350 7800 50  0000 C CNN
F 3 "" H 4350 7800 50  0000 C CNN
	1    4350 7800
	1    0    0    -1  
$EndComp
Wire Wire Line
	3350 2500 3850 2500
Wire Wire Line
	3550 4600 3850 4600
Wire Wire Line
	3850 5000 3650 5000
Wire Wire Line
	3650 6700 3850 6700
Wire Wire Line
	3550 7100 3850 7100
Wire Wire Line
	3450 8800 3850 8800
Wire Wire Line
	3350 9200 3850 9200
Wire Wire Line
	3450 2900 3850 2900
Wire Wire Line
	3350 2500 3350 5300
Wire Wire Line
	3350 5300 3250 5300
Wire Wire Line
	3250 5400 3450 5400
Wire Wire Line
	3450 5400 3450 2900
Wire Wire Line
	3550 4600 3550 5500
Wire Wire Line
	3550 5500 3250 5500
Wire Wire Line
	3650 5000 3650 5600
Wire Wire Line
	3650 5600 3250 5600
Wire Wire Line
	3250 5700 3650 5700
Wire Wire Line
	3650 5700 3650 6700
Wire Wire Line
	3250 5800 3550 5800
Wire Wire Line
	3550 5800 3550 7100
Wire Wire Line
	3250 5900 3450 5900
Wire Wire Line
	3450 5900 3450 8800
Wire Wire Line
	3250 6000 3350 6000
Wire Wire Line
	3350 6000 3350 9200
$Comp
L GND #PWR011
U 1 1 60C8A44F
P 1600 5600
F 0 "#PWR011" H 1600 5350 50  0001 C CNN
F 1 "GND" H 1600 5450 50  0000 C CNN
F 2 "" H 1600 5600 50  0000 C CNN
F 3 "" H 1600 5600 50  0000 C CNN
	1    1600 5600
	1    0    0    -1  
$EndComp
Wire Wire Line
	1700 5200 1500 5200
Wire Wire Line
	1500 5500 1600 5500
Wire Wire Line
	1600 5500 1600 5600
$Comp
L VCC #PWR012
U 1 1 60C8A462
P 1600 4600
F 0 "#PWR012" H 1600 4450 50  0001 C CNN
F 1 "VCC" H 1600 4750 50  0000 C CNN
F 2 "" H 1600 4600 50  0000 C CNN
F 3 "" H 1600 4600 50  0000 C CNN
	1    1600 4600
	1    0    0    -1  
$EndComp
$Comp
L VDD #PWR013
U 1 1 60C8A477
P 1900 4700
F 0 "#PWR013" H 1900 4550 50  0001 C CNN
F 1 "VDD" H 1900 4850 50  0000 C CNN
F 2 "" H 1900 4700 50  0000 C CNN
F 3 "" H 1900 4700 50  0000 C CNN
	1    1900 4700
	1    0    0    -1  
$EndComp
Wire Wire Line
	1500 5400 2100 5400
Wire Wire Line
	2100 5400 2250 5400
Wire Wire Line
	1500 5300 1900 5300
Wire Wire Line
	1900 5300 2250 5300
$Comp
L VDD #PWR014
U 1 1 60C8A793
P 2750 4900
F 0 "#PWR014" H 2750 4750 50  0001 C CNN
F 1 "VDD" H 2750 5050 50  0000 C CNN
F 2 "" H 2750 4900 50  0000 C CNN
F 3 "" H 2750 4900 50  0000 C CNN
	1    2750 4900
	1    0    0    -1  
$EndComp
Wire Wire Line
	2750 4900 2750 5000
Wire Wire Line
	2750 6500 2750 6400
$Comp
L AddressSelector3 JP2
U 1 1 60E1BC8B
P 1500 6150
F 0 "JP2" H 1540 6240 50  0000 C CNN
F 1 "ADDRESS" H 1520 6310 50  0000 C CNN
F 2 "mySwitches:AdressSelector3" H 1500 6150 50  0001 C CNN
F 3 "" H 1500 6150 50  0000 C CNN
	1    1500 6150
	1    0    0    -1  
$EndComp
Wire Wire Line
	2250 5600 1950 5600
Wire Wire Line
	1950 5600 1950 6200
Wire Wire Line
	1950 6200 1550 6200
Wire Wire Line
	1550 6350 2000 6350
Wire Wire Line
	2000 6350 2000 5700
Wire Wire Line
	2000 5700 2250 5700
Wire Wire Line
	2250 5800 2050 5800
Wire Wire Line
	2050 5800 2050 6550
Wire Wire Line
	2050 6550 1550 6550
$Comp
L VDD #PWR015
U 1 1 60E1C709
P 1800 5950
F 0 "#PWR015" H 1800 5800 50  0001 C CNN
F 1 "VDD" H 1800 6100 50  0000 C CNN
F 2 "" H 1800 5950 50  0000 C CNN
F 3 "" H 1800 5950 50  0000 C CNN
	1    1800 5950
	1    0    0    -1  
$EndComp
Wire Wire Line
	1800 5950 1800 6150
Wire Wire Line
	1800 6150 1800 6300
Wire Wire Line
	1800 6300 1800 6450
Wire Wire Line
	1800 6450 1700 6450
Wire Wire Line
	1700 6300 1800 6300
Connection ~ 1800 6300
Wire Wire Line
	1700 6150 1800 6150
Connection ~ 1800 6150
$Comp
L R R9
U 1 1 60E1CAA2
P 1900 5050
F 0 "R9" V 1980 5050 50  0000 C CNN
F 1 "4.7K" V 1900 5050 50  0000 C CNN
F 2 "Resistors_ThroughHole:Resistor_Horizontal_RM10mm" V 1830 5050 50  0001 C CNN
F 3 "" H 1900 5050 50  0000 C CNN
	1    1900 5050
	-1   0    0    1   
$EndComp
Wire Wire Line
	1900 5200 1900 5300
Connection ~ 1900 5300
$Comp
L R R10
U 1 1 60E1CD20
P 2100 5050
F 0 "R10" V 2180 5050 50  0000 C CNN
F 1 "4.7K" V 2100 5050 50  0000 C CNN
F 2 "Resistors_ThroughHole:Resistor_Horizontal_RM10mm" V 2030 5050 50  0001 C CNN
F 3 "" H 2100 5050 50  0000 C CNN
	1    2100 5050
	-1   0    0    1   
$EndComp
Wire Wire Line
	2100 5200 2100 5400
Connection ~ 2100 5400
Wire Wire Line
	1500 4800 1700 4800
Wire Wire Line
	1700 4800 1900 4800
Wire Wire Line
	1900 4800 2100 4800
Wire Wire Line
	2100 4800 2100 4900
Wire Wire Line
	1900 4700 1900 4800
Wire Wire Line
	1900 4800 1900 4900
Connection ~ 1900 4800
Wire Wire Line
	1550 6550 1550 6500
$Comp
L Conn_01x03 J1
U 1 1 6113F4DA
P 1300 4800
F 0 "J1" H 1300 5000 50  0000 C CNN
F 1 "PWR" V 1400 4800 50  0000 C CNN
F 2 "Pin_Headers:Pin_Header_Straight_1x03_Pitch2.54mm" H 1300 4800 50  0001 C CNN
F 3 "" H 1300 4800 50  0001 C CNN
	1    1300 4800
	-1   0    0    1   
$EndComp
$Comp
L Conn_01x04 J2
U 1 1 6113F677
P 1300 5400
F 0 "J2" H 1300 5600 50  0000 C CNN
F 1 "IN" V 1400 5350 50  0000 C CNN
F 2 "Pin_Headers:Pin_Header_Straight_1x04_Pitch2.54mm" H 1300 5400 50  0001 C CNN
F 3 "" H 1300 5400 50  0001 C CNN
	1    1300 5400
	-1   0    0    1   
$EndComp
Wire Wire Line
	1500 4700 1600 4700
Wire Wire Line
	1600 4700 1600 4600
Wire Wire Line
	1700 4800 1700 5200
Connection ~ 1700 4800
$Comp
L GND #PWR016
U 1 1 6113FEEB
P 1600 5000
F 0 "#PWR016" H 1600 4750 50  0001 C CNN
F 1 "GND" H 1600 4850 50  0000 C CNN
F 2 "" H 1600 5000 50  0000 C CNN
F 3 "" H 1600 5000 50  0000 C CNN
	1    1600 5000
	1    0    0    -1  
$EndComp
Wire Wire Line
	1600 5000 1600 4900
Wire Wire Line
	1600 4900 1500 4900
Text Notes 1250 4350 0    60   ~ 0
Jumper on J1 2&3\nfor 5V power\nElse power on 1&3
$EndSCHEMATC
