EESchema Schematic File Version 2
LIBS:quad-bistable-relay-rescue
LIBS:power
LIBS:device
LIBS:transistors
LIBS:conn
LIBS:linear
LIBS:regul
LIBS:74xx
LIBS:cmos4000
LIBS:adc-dac
LIBS:memory
LIBS:xilinx
LIBS:microcontrollers
LIBS:dsp
LIBS:microchip
LIBS:analog_switches
LIBS:motorola
LIBS:texas
LIBS:intel
LIBS:audio
LIBS:interface
LIBS:digital-audio
LIBS:philips
LIBS:display
LIBS:cypress
LIBS:siliconi
LIBS:opto
LIBS:atmel
LIBS:contrib
LIBS:valves
LIBS:my-microcontrollers
LIBS:my-misc-modules
LIBS:my-ICs
LIBS:my-transistors
LIBS:my-relays
LIBS:my-switches
LIBS:quad-bistable-relay-cache
EELAYER 25 0
EELAYER END
$Descr A4 8268 11693 portrait
encoding utf-8
Sheet 1 1
Title ""
Date ""
Rev ""
Comp ""
Comment1 ""
Comment2 ""
Comment3 ""
Comment4 ""
$EndDescr
$Comp
L CONN_01X02 P5
U 1 1 60C8A8DF
P 7100 6850
F 0 "P5" H 7100 7000 50  0000 C CNN
F 1 "OUT4" V 7200 6850 50  0000 C CNN
F 2 "Connect:bornier2" H 7100 6850 50  0001 C CNN
F 3 "" H 7100 6850 50  0000 C CNN
	1    7100 6850
	1    0    0    -1  
$EndComp
$Comp
L CONN_01X02 P4
U 1 1 60C8A91D
P 7100 5350
F 0 "P4" H 7100 5500 50  0000 C CNN
F 1 "OUT3" V 7200 5350 50  0000 C CNN
F 2 "Connect:bornier2" H 7100 5350 50  0001 C CNN
F 3 "" H 7100 5350 50  0000 C CNN
	1    7100 5350
	1    0    0    -1  
$EndComp
$Comp
L CONN_01X02 P3
U 1 1 60C8AA05
P 7100 3850
F 0 "P3" H 7100 4000 50  0000 C CNN
F 1 "OUT2" V 7200 3850 50  0000 C CNN
F 2 "Connect:bornier2" H 7100 3850 50  0001 C CNN
F 3 "" H 7100 3850 50  0000 C CNN
	1    7100 3850
	1    0    0    -1  
$EndComp
$Comp
L CONN_01X02 P2
U 1 1 60C8AA23
P 7100 2350
F 0 "P2" H 7100 2500 50  0000 C CNN
F 1 "OUT1" V 7200 2350 50  0000 C CNN
F 2 "Connect:bornier2" H 7100 2350 50  0001 C CNN
F 3 "" H 7100 2350 50  0000 C CNN
	1    7100 2350
	1    0    0    -1  
$EndComp
$Comp
L GND #PWR01
U 1 1 60C8A44F
P 1600 7100
F 0 "#PWR01" H 1600 6850 50  0001 C CNN
F 1 "GND" H 1600 6950 50  0000 C CNN
F 2 "" H 1600 7100 50  0000 C CNN
F 3 "" H 1600 7100 50  0000 C CNN
	1    1600 7100
	1    0    0    -1  
$EndComp
$Comp
L VCC #PWR02
U 1 1 60C8A462
P 1600 6100
F 0 "#PWR02" H 1600 5950 50  0001 C CNN
F 1 "VCC" H 1600 6250 50  0000 C CNN
F 2 "" H 1600 6100 50  0000 C CNN
F 3 "" H 1600 6100 50  0000 C CNN
	1    1600 6100
	1    0    0    -1  
$EndComp
$Comp
L VDD #PWR03
U 1 1 60C8A477
P 2000 6200
F 0 "#PWR03" H 2000 6050 50  0001 C CNN
F 1 "VDD" H 2000 6350 50  0000 C CNN
F 2 "" H 2000 6200 50  0000 C CNN
F 3 "" H 2000 6200 50  0000 C CNN
	1    2000 6200
	1    0    0    -1  
$EndComp
$Comp
L VDD #PWR04
U 1 1 60C8A793
P 2600 4750
F 0 "#PWR04" H 2600 4600 50  0001 C CNN
F 1 "VDD" H 2600 4900 50  0000 C CNN
F 2 "" H 2600 4750 50  0000 C CNN
F 3 "" H 2600 4750 50  0000 C CNN
	1    2600 4750
	1    0    0    -1  
$EndComp
$Comp
L ULN2803A-RESCUE-quad-bistable-relay U2
U 1 1 60C8BDE2
P 4000 5500
F 0 "U2" H 4000 6025 50  0000 C CNN
F 1 "ULN2803A" H 4000 5950 50  0000 C CNN
F 2 "Housings_DIP:DIP-18_W7.62mm_LongPads" H 4050 4850 50  0001 L CNN
F 3 "" H 4100 5300 50  0001 C CNN
	1    4000 5500
	1    0    0    -1  
$EndComp
$Comp
L GND #PWR05
U 1 1 60C8C125
P 4000 6300
F 0 "#PWR05" H 4000 6050 50  0001 C CNN
F 1 "GND" H 4000 6150 50  0000 C CNN
F 2 "" H 4000 6300 50  0000 C CNN
F 3 "" H 4000 6300 50  0000 C CNN
	1    4000 6300
	1    0    0    -1  
$EndComp
$Comp
L VCC #PWR06
U 1 1 60C8C1FD
P 4500 5100
F 0 "#PWR06" H 4500 4950 50  0001 C CNN
F 1 "VCC" H 4500 5250 50  0000 C CNN
F 2 "" H 4500 5100 50  0000 C CNN
F 3 "" H 4500 5100 50  0000 C CNN
	1    4500 5100
	1    0    0    -1  
$EndComp
$Comp
L VCC #PWR07
U 1 1 60C8C2BE
P 5100 2600
F 0 "#PWR07" H 5100 2450 50  0001 C CNN
F 1 "VCC" H 5100 2750 50  0000 C CNN
F 2 "" H 5100 2600 50  0000 C CNN
F 3 "" H 5100 2600 50  0000 C CNN
	1    5100 2600
	1    0    0    -1  
$EndComp
$Comp
L R R1
U 1 1 60C8DD04
P 2000 6550
F 0 "R1" V 2080 6550 50  0000 C CNN
F 1 "4.7K" V 2000 6550 50  0000 C CNN
F 2 "Resistors_ThroughHole:Resistor_Horizontal_RM10mm" V 1930 6550 50  0001 C CNN
F 3 "" H 2000 6550 50  0000 C CNN
	1    2000 6550
	1    0    0    -1  
$EndComp
$Comp
L R R2
U 1 1 60C8DD83
P 2200 6550
F 0 "R2" V 2280 6550 50  0000 C CNN
F 1 "4.7K" V 2200 6550 50  0000 C CNN
F 2 "Resistors_ThroughHole:Resistor_Horizontal_RM10mm" V 2130 6550 50  0001 C CNN
F 3 "" H 2200 6550 50  0000 C CNN
	1    2200 6550
	1    0    0    -1  
$EndComp
$Comp
L OMRON-G5RL-K1-E K1
U 1 1 60CA0E78
P 5950 2450
F 0 "K1" H 5900 2850 50  0000 C CNN
F 1 "OMRON-G5RL-K1-E" H 5945 1650 50  0000 C CNN
F 2 "myRelays:Relay_SPDT_Omron-G5RL-K1-E" H 5950 2450 50  0001 C CNN
F 3 "" H 5950 2450 50  0000 C CNN
	1    5950 2450
	1    0    0    -1  
$EndComp
$Comp
L OMRON-G5RL-K1-E K2
U 1 1 60CA0EDF
P 5950 3950
F 0 "K2" H 5900 4350 50  0000 C CNN
F 1 "OMRON-G5RL-K1-E" H 5945 3150 50  0000 C CNN
F 2 "myRelays:Relay_SPDT_Omron-G5RL-K1-E" H 5950 3950 50  0001 C CNN
F 3 "" H 5950 3950 50  0000 C CNN
	1    5950 3950
	1    0    0    -1  
$EndComp
$Comp
L OMRON-G5RL-K1-E K3
U 1 1 60CA0F39
P 5950 5450
F 0 "K3" H 5900 5850 50  0000 C CNN
F 1 "OMRON-G5RL-K1-E" H 5945 4650 50  0000 C CNN
F 2 "myRelays:Relay_SPDT_Omron-G5RL-K1-E" H 5950 5450 50  0001 C CNN
F 3 "" H 5950 5450 50  0000 C CNN
	1    5950 5450
	1    0    0    -1  
$EndComp
$Comp
L OMRON-G5RL-K1-E K4
U 1 1 60CA0FAA
P 5950 6950
F 0 "K4" H 5900 7350 50  0000 C CNN
F 1 "OMRON-G5RL-K1-E" H 5945 6150 50  0000 C CNN
F 2 "myRelays:Relay_SPDT_Omron-G5RL-K1-E" H 5950 6950 50  0001 C CNN
F 3 "" H 5950 6950 50  0000 C CNN
	1    5950 6950
	1    0    0    -1  
$EndComp
$Comp
L MCP23008-RESCUE-quad-bistable-relay U1
U 1 1 60CB11CC
P 2700 5750
F 0 "U1" H 2700 6000 50  0000 C CNN
F 1 "MCP23008" H 2750 5850 50  0000 C CNN
F 2 "Housings_DIP:DIP-18_W7.62mm_LongPads" H 2700 5850 60  0001 C CNN
F 3 "" H 2700 5850 60  0000 C CNN
	1    2700 5750
	-1   0    0    -1  
$EndComp
$Comp
L GND #PWR08
U 1 1 5C56FCFF
P 1400 5400
F 0 "#PWR08" H 1400 5150 50  0001 C CNN
F 1 "GND" H 1400 5250 50  0000 C CNN
F 2 "" H 1400 5400 50  0000 C CNN
F 3 "" H 1400 5400 50  0000 C CNN
	1    1400 5400
	1    0    0    -1  
$EndComp
$Comp
L VDD #PWR09
U 1 1 60E19AEC
P 1900 4900
F 0 "#PWR09" H 1900 4750 50  0001 C CNN
F 1 "VDD" H 1900 5050 50  0000 C CNN
F 2 "" H 1900 4900 50  0000 C CNN
F 3 "" H 1900 4900 50  0000 C CNN
	1    1900 4900
	1    0    0    -1  
$EndComp
$Comp
L AddressSelector3 JP2
U 1 1 60E19A76
P 1600 5000
F 0 "JP2" H 1640 5090 50  0000 C CNN
F 1 "ADDRESS" H 1620 5160 50  0000 C CNN
F 2 "mySwitches:AdressSelector3" H 1600 5000 50  0001 C CNN
F 3 "" H 1600 5000 50  0000 C CNN
	1    1600 5000
	1    0    0    -1  
$EndComp
Wire Wire Line
	5300 4900 5300 5200
Wire Wire Line
	5300 5200 5300 5500
Wire Wire Line
	6750 4900 5300 4900
Wire Wire Line
	6750 5400 6750 4900
Wire Wire Line
	6900 5400 6750 5400
Wire Wire Line
	6450 5300 6450 5600
Connection ~ 6450 5300
Wire Wire Line
	6450 5600 6350 5600
Wire Wire Line
	6350 5300 6450 5300
Wire Wire Line
	6450 5300 6900 5300
Wire Wire Line
	5300 5500 5550 5500
Wire Wire Line
	5300 5200 5550 5200
Wire Wire Line
	6800 5300 6800 5300
Connection ~ 5300 5200
Wire Wire Line
	5300 6400 5300 6700
Wire Wire Line
	5300 6700 5300 7000
Wire Wire Line
	6750 6400 5300 6400
Wire Wire Line
	6750 6900 6750 6400
Wire Wire Line
	6900 6900 6750 6900
Wire Wire Line
	6450 6800 6450 7100
Connection ~ 6450 6800
Wire Wire Line
	6450 7100 6350 7100
Wire Wire Line
	6350 6800 6450 6800
Wire Wire Line
	6450 6800 6900 6800
Wire Wire Line
	5300 7000 5550 7000
Wire Wire Line
	5300 6700 5550 6700
Wire Wire Line
	6800 6800 6800 6800
Connection ~ 5300 6700
Wire Wire Line
	5300 3400 5300 3700
Wire Wire Line
	5300 3700 5300 4000
Wire Wire Line
	6750 3400 5300 3400
Wire Wire Line
	6750 3900 6750 3400
Wire Wire Line
	6900 3900 6750 3900
Wire Wire Line
	6450 3800 6450 4100
Connection ~ 6450 3800
Wire Wire Line
	6450 4100 6350 4100
Wire Wire Line
	6350 3800 6450 3800
Wire Wire Line
	6450 3800 6900 3800
Wire Wire Line
	5300 4000 5550 4000
Wire Wire Line
	5300 3700 5550 3700
Wire Wire Line
	6800 3800 6800 3800
Connection ~ 5300 3700
Wire Wire Line
	5300 1900 5300 2200
Wire Wire Line
	5300 2200 5300 2500
Wire Wire Line
	6750 1900 5300 1900
Wire Wire Line
	6750 2400 6750 1900
Wire Wire Line
	6900 2400 6750 2400
Wire Wire Line
	6450 2300 6450 2600
Connection ~ 6450 2300
Wire Wire Line
	6450 2600 6350 2600
Wire Wire Line
	6350 2300 6450 2300
Wire Wire Line
	6450 2300 6900 2300
Wire Wire Line
	5300 2500 5550 2500
Wire Wire Line
	5300 2200 5550 2200
Wire Wire Line
	6800 2300 6800 2300
Connection ~ 5300 2200
Wire Wire Line
	1700 6700 1500 6700
Wire Wire Line
	1500 7000 1600 7000
Wire Wire Line
	1600 7000 2700 7000
Wire Wire Line
	1600 7000 1600 7100
Wire Wire Line
	1500 6900 2200 6900
Wire Wire Line
	2200 6900 2500 6900
Wire Wire Line
	1500 6800 2000 6800
Wire Wire Line
	2000 6800 2600 6800
Wire Wire Line
	3250 5300 3600 5300
Wire Wire Line
	3600 5400 3250 5400
Wire Wire Line
	3250 5500 3600 5500
Wire Wire Line
	3600 5600 3250 5600
Wire Wire Line
	3250 5700 3600 5700
Wire Wire Line
	3600 5800 3250 5800
Wire Wire Line
	3250 5900 3600 5900
Wire Wire Line
	3600 6000 3250 6000
Wire Wire Line
	4000 6300 4000 6200
Wire Wire Line
	4500 5100 4500 5200
Wire Wire Line
	4500 5200 4400 5200
Wire Wire Line
	5100 2600 5100 2800
Wire Wire Line
	5100 2800 5100 4300
Wire Wire Line
	5100 4300 5100 5800
Wire Wire Line
	5100 5800 5100 7300
Wire Wire Line
	5100 7300 5550 7300
Wire Wire Line
	5100 2800 5550 2800
Connection ~ 5100 2800
Wire Wire Line
	5100 4300 5550 4300
Connection ~ 5100 4300
Wire Wire Line
	5550 5800 5100 5800
Connection ~ 5100 5800
Wire Wire Line
	4550 2700 5550 2700
Wire Wire Line
	4600 3100 5550 3100
Wire Wire Line
	4650 4200 5550 4200
Wire Wire Line
	4700 4600 5550 4600
Wire Wire Line
	4800 6100 5550 6100
Wire Wire Line
	5550 7200 4900 7200
Wire Wire Line
	4850 7600 5550 7600
Wire Wire Line
	5550 5700 4750 5700
Wire Wire Line
	4400 5300 4900 5300
Wire Wire Line
	4900 5300 4900 7200
Wire Wire Line
	4400 5400 4850 5400
Wire Wire Line
	4850 5400 4850 7600
Wire Wire Line
	4750 5700 4750 5500
Wire Wire Line
	4750 5500 4400 5500
Wire Wire Line
	4800 6100 4800 5600
Wire Wire Line
	4800 5600 4400 5600
Wire Wire Line
	4650 4200 4650 5700
Wire Wire Line
	4650 5700 4400 5700
Wire Wire Line
	4700 4600 4700 5800
Wire Wire Line
	4700 5800 4400 5800
Wire Wire Line
	4400 5900 4550 5900
Wire Wire Line
	4550 5900 4550 2700
Wire Wire Line
	4600 3100 4600 6000
Wire Wire Line
	4600 6000 4400 6000
Wire Wire Line
	1500 6300 1700 6300
Wire Wire Line
	1700 6300 2000 6300
Wire Wire Line
	2000 6300 2200 6300
Wire Wire Line
	2200 6300 2200 6400
Connection ~ 1700 6300
Wire Wire Line
	2000 6200 2000 6300
Wire Wire Line
	2000 6300 2000 6400
Connection ~ 2000 6300
Wire Wire Line
	2000 6700 2000 6800
Connection ~ 2000 6800
Wire Wire Line
	2200 6700 2200 6900
Connection ~ 2200 6900
Wire Wire Line
	2500 6900 2500 6450
Wire Wire Line
	2600 6800 2600 6450
Wire Wire Line
	2600 4750 2600 4850
Wire Wire Line
	2050 5250 2150 5250
Wire Wire Line
	1900 4900 1900 5000
Wire Wire Line
	1900 5000 1900 5150
Wire Wire Line
	1900 5150 1900 5300
Wire Wire Line
	1800 5150 1900 5150
Connection ~ 1900 5150
Wire Wire Line
	1800 5000 1900 5000
Connection ~ 1900 5000
Wire Wire Line
	1400 5000 1400 5150
Wire Wire Line
	1400 5150 1400 5300
Wire Wire Line
	1400 5300 1400 5400
Wire Wire Line
	1400 5000 1500 5000
Wire Wire Line
	1500 5150 1400 5150
Connection ~ 1400 5150
Wire Wire Line
	1500 5300 1400 5300
Connection ~ 1400 5300
Wire Wire Line
	1650 5050 2050 5050
Wire Wire Line
	1650 5350 1950 5350
Wire Wire Line
	1900 5300 1800 5300
Wire Wire Line
	1950 5450 2150 5450
$Comp
L VSS #PWR010
U 1 1 60E5BE52
P 2700 6900
F 0 "#PWR010" H 2700 6750 50  0001 C CNN
F 1 "VSS" H 2700 7050 50  0000 C CNN
F 2 "" H 2700 6900 50  0000 C CNN
F 3 "" H 2700 6900 50  0000 C CNN
	1    2700 6900
	1    0    0    -1  
$EndComp
Wire Wire Line
	2700 7000 2700 6900
Connection ~ 1600 7000
$Comp
L Conn_01x04 J2
U 1 1 6113F1DE
P 1300 6900
F 0 "J2" H 1300 7100 50  0000 C CNN
F 1 "IN" V 1400 6850 50  0000 C CNN
F 2 "Pin_Headers:Pin_Header_Straight_1x04_Pitch2.54mm" H 1300 6900 50  0001 C CNN
F 3 "" H 1300 6900 50  0001 C CNN
	1    1300 6900
	-1   0    0    1   
$EndComp
$Comp
L Conn_01x03 J1
U 1 1 6113F2FD
P 1300 6300
F 0 "J1" H 1300 6500 50  0000 C CNN
F 1 "PWR" V 1400 6300 50  0000 C CNN
F 2 "Pin_Headers:Pin_Header_Straight_1x03_Pitch2.54mm" H 1300 6300 50  0001 C CNN
F 3 "" H 1300 6300 50  0001 C CNN
	1    1300 6300
	-1   0    0    1   
$EndComp
Wire Wire Line
	1600 6100 1600 6200
Wire Wire Line
	1600 6200 1500 6200
$Comp
L GND #PWR011
U 1 1 6113F4FC
P 1600 6500
F 0 "#PWR011" H 1600 6250 50  0001 C CNN
F 1 "GND" H 1600 6350 50  0000 C CNN
F 2 "" H 1600 6500 50  0000 C CNN
F 3 "" H 1600 6500 50  0000 C CNN
	1    1600 6500
	1    0    0    -1  
$EndComp
Wire Wire Line
	1600 6500 1600 6400
Wire Wire Line
	1600 6400 1500 6400
Wire Wire Line
	1700 6300 1700 6700
Wire Wire Line
	1950 5350 1950 5450
Wire Wire Line
	2150 5350 2000 5350
Wire Wire Line
	2000 5350 2000 5200
Wire Wire Line
	2000 5200 1650 5200
Wire Wire Line
	2050 5050 2050 5250
Text Notes 1200 5900 0    60   ~ 0
Jumper on J1 2&3\nfor 5V power\nElse power on 1&3
$EndSCHEMATC
