EESchema Schematic File Version 2
LIBS:power
LIBS:device
LIBS:transistors
LIBS:conn
LIBS:linear
LIBS:regul
LIBS:74xx
LIBS:cmos4000
LIBS:adc-dac
LIBS:memory
LIBS:xilinx
LIBS:microcontrollers
LIBS:dsp
LIBS:microchip
LIBS:analog_switches
LIBS:motorola
LIBS:texas
LIBS:intel
LIBS:audio
LIBS:interface
LIBS:digital-audio
LIBS:philips
LIBS:display
LIBS:cypress
LIBS:siliconi
LIBS:opto
LIBS:atmel
LIBS:contrib
LIBS:valves
LIBS:my-regulators
LIBS:my-relays
LIBS:my-power-supplies
LIBS:step-up--relay-cache
EELAYER 25 0
EELAYER END
$Descr A4 11693 8268
encoding utf-8
Sheet 1 1
Title ""
Date ""
Rev ""
Comp ""
Comment1 ""
Comment2 ""
Comment3 ""
Comment4 ""
$EndDescr
$Comp
L R R1
U 1 1 60ACE150
P 5300 4100
F 0 "R1" V 5380 4100 50  0000 C CNN
F 1 "390" V 5300 4100 50  0000 C CNN
F 2 "Resistors_ThroughHole:Resistor_Horizontal_RM10mm" V 5230 4100 50  0001 C CNN
F 3 "" H 5300 4100 50  0000 C CNN
	1    5300 4100
	0    1    1    0   
$EndComp
$Comp
L D D2
U 1 1 60ACE157
P 5550 3450
F 0 "D2" H 5550 3550 50  0000 C CNN
F 1 "1N4148" H 5550 3350 50  0000 C CNN
F 2 "Diodes_ThroughHole:Diode_DO-35_SOD27_Horizontal_RM10" H 5550 3450 50  0001 C CNN
F 3 "" H 5550 3450 50  0000 C CNN
	1    5550 3450
	0    1    1    0   
$EndComp
$Comp
L PN2222A Q2
U 1 1 60ACE165
P 5650 4100
F 0 "Q2" H 5850 4175 50  0000 L CNN
F 1 "2N2222" H 5850 4100 50  0000 L CNN
F 2 "TO_SOT_Packages_THT:TO-92_Inline_Wide" H 5850 4025 50  0001 L CIN
F 3 "" H 5650 4100 50  0000 L CNN
	1    5650 4100
	1    0    0    -1  
$EndComp
$Comp
L GND #PWR01
U 1 1 60ACE173
P 5750 4400
F 0 "#PWR01" H 5750 4150 50  0001 C CNN
F 1 "GND" H 5750 4250 50  0000 C CNN
F 2 "" H 5750 4400 50  0000 C CNN
F 3 "" H 5750 4400 50  0000 C CNN
	1    5750 4400
	1    0    0    -1  
$EndComp
$Comp
L GND #PWR02
U 1 1 60ACE2B7
P 3650 3500
F 0 "#PWR02" H 3650 3250 50  0001 C CNN
F 1 "GND" H 3650 3350 50  0000 C CNN
F 2 "" H 3650 3500 50  0000 C CNN
F 3 "" H 3650 3500 50  0000 C CNN
	1    3650 3500
	1    0    0    -1  
$EndComp
$Comp
L GND #PWR03
U 1 1 60ACD46D
P 5300 3500
F 0 "#PWR03" H 5300 3250 50  0001 C CNN
F 1 "GND" H 5300 3350 50  0000 C CNN
F 2 "" H 5300 3500 50  0000 C CNN
F 3 "" H 5300 3500 50  0000 C CNN
	1    5300 3500
	1    0    0    -1  
$EndComp
$Comp
L GND #PWR04
U 1 1 60ACD4D2
P 4000 3500
F 0 "#PWR04" H 4000 3250 50  0001 C CNN
F 1 "GND" H 4000 3350 50  0000 C CNN
F 2 "" H 4000 3500 50  0000 C CNN
F 3 "" H 4000 3500 50  0000 C CNN
	1    4000 3500
	1    0    0    -1  
$EndComp
$Comp
L VCC #PWR05
U 1 1 60ACDF80
P 4000 3100
F 0 "#PWR05" H 4000 2950 50  0001 C CNN
F 1 "VCC" H 4000 3250 50  0000 C CNN
F 2 "" H 4000 3100 50  0000 C CNN
F 3 "" H 4000 3100 50  0000 C CNN
	1    4000 3100
	1    0    0    -1  
$EndComp
$Comp
L FINDER-40.61 K1
U 1 1 60AD12C3
P 6250 2950
F 0 "K1" H 6200 3350 50  0000 C CNN
F 1 "FINDER 40.61.9.005.0000" H 6250 2450 50  0000 C CNN
F 2 "myRelays:Relay_DPDT_Finder-RT2_RM5mm" H 6250 2950 50  0001 C CNN
F 3 "" H 6250 2950 50  0000 C CNN
	1    6250 2950
	1    0    0    -1  
$EndComp
$Comp
L CONN_01X04 P1
U 1 1 60AD1620
P 3350 3250
F 0 "P1" H 3350 3500 50  0000 C CNN
F 1 "IN" V 3450 3250 50  0000 C CNN
F 2 "Pin_Headers:Pin_Header_Straight_1x04" H 3350 3250 50  0001 C CNN
F 3 "" H 3350 3250 50  0000 C CNN
	1    3350 3250
	-1   0    0    1   
$EndComp
$Comp
L +5V #PWR06
U 1 1 60AD1799
P 3800 2750
F 0 "#PWR06" H 3800 2600 50  0001 C CNN
F 1 "+5V" H 3800 2890 50  0000 C CNN
F 2 "" H 3800 2750 50  0000 C CNN
F 3 "" H 3800 2750 50  0000 C CNN
	1    3800 2750
	1    0    0    -1  
$EndComp
$Comp
L XR2981-MODULE U1
U 1 1 60AF5F75
P 4650 3300
F 0 "U1" H 4650 3550 60  0000 C CNN
F 1 "XR2981-MODULE" H 4300 3050 60  0000 L CNN
F 2 "myPowerSupplies:XR2981-MODULE" H 4650 3300 60  0001 C CNN
F 3 "" H 4650 3300 60  0000 C CNN
	1    4650 3300
	1    0    0    -1  
$EndComp
$Comp
L CONN_01X03 P2
U 1 1 60AF5FE7
P 7200 3100
F 0 "P2" H 7200 3300 50  0000 C CNN
F 1 "OUT" V 7300 3100 50  0000 C CNN
F 2 "Connect:bornier3" H 7200 3100 50  0001 C CNN
F 3 "" H 7200 3100 50  0000 C CNN
	1    7200 3100
	1    0    0    -1  
$EndComp
Wire Wire Line
	3550 3200 4100 3200
Wire Wire Line
	4000 3400 4100 3400
Wire Wire Line
	4000 3500 4000 3400
Wire Wire Line
	5300 3400 5200 3400
Wire Wire Line
	5300 3500 5300 3400
Wire Wire Line
	3650 3400 3650 3500
Wire Wire Line
	3550 3400 3650 3400
Wire Wire Line
	5550 3200 5550 3300
Connection ~ 5750 3800
Wire Wire Line
	5550 3800 5750 3800
Wire Wire Line
	5550 3600 5550 3800
Wire Wire Line
	5750 3300 5750 3900
Wire Wire Line
	5750 4400 5750 4300
Wire Wire Line
	3850 4100 5150 4100
Wire Wire Line
	5850 3300 5750 3300
Connection ~ 5550 3200
Wire Wire Line
	4000 3100 4000 3200
Connection ~ 4000 3200
Wire Wire Line
	3550 3300 3850 3300
Wire Wire Line
	3850 3300 3850 4100
Wire Wire Line
	5200 3200 5850 3200
Wire Wire Line
	5750 3000 5850 3000
Wire Wire Line
	5750 2400 5750 3000
Wire Wire Line
	5750 2400 6900 2400
Wire Wire Line
	5850 2700 5750 2700
Connection ~ 5750 2700
Wire Wire Line
	6650 2800 6750 2800
Wire Wire Line
	6750 2800 6750 3100
Wire Wire Line
	3550 3100 3650 3100
Wire Wire Line
	3650 3100 3650 2850
Wire Wire Line
	3650 2850 5300 2850
Wire Wire Line
	5300 2850 5300 3200
Connection ~ 5300 3200
Wire Wire Line
	3800 2750 3800 2850
Connection ~ 3800 2850
Wire Wire Line
	6900 2400 6900 3100
Wire Wire Line
	6650 2600 6800 2600
Wire Wire Line
	6800 2600 6800 3200
Wire Wire Line
	6800 2900 6650 2900
Connection ~ 6800 2900
Wire Wire Line
	6900 3100 7000 3100
Wire Wire Line
	6800 3200 7000 3200
Wire Wire Line
	6750 3000 7000 3000
Wire Wire Line
	6750 3100 6650 3100
Connection ~ 6750 3000
$EndSCHEMATC
