EESchema Schematic File Version 2
LIBS:quad-bistable-relay-rescue
LIBS:power
LIBS:device
LIBS:transistors
LIBS:conn
LIBS:linear
LIBS:regul
LIBS:74xx
LIBS:cmos4000
LIBS:adc-dac
LIBS:memory
LIBS:xilinx
LIBS:microcontrollers
LIBS:dsp
LIBS:microchip
LIBS:analog_switches
LIBS:motorola
LIBS:texas
LIBS:intel
LIBS:audio
LIBS:interface
LIBS:digital-audio
LIBS:philips
LIBS:display
LIBS:cypress
LIBS:siliconi
LIBS:opto
LIBS:atmel
LIBS:contrib
LIBS:valves
LIBS:my-microcontrollers
LIBS:my-misc-modules
LIBS:my-ICs
LIBS:my-transistors
LIBS:my-relays
LIBS:my-switches
LIBS:quad-bistable-relay-cache
EELAYER 25 0
EELAYER END
$Descr A4 8268 11693 portrait
encoding utf-8
Sheet 1 1
Title ""
Date ""
Rev ""
Comp ""
Comment1 ""
Comment2 ""
Comment3 ""
Comment4 ""
$EndDescr
$Comp
L GND #PWR01
U 1 1 5C56FCFF
P 1250 6450
F 0 "#PWR01" H 1250 6200 50  0001 C CNN
F 1 "GND" H 1250 6300 50  0000 C CNN
F 2 "" H 1250 6450 50  0000 C CNN
F 3 "" H 1250 6450 50  0000 C CNN
	1    1250 6450
	1    0    0    -1  
$EndComp
Wire Wire Line
	1250 6050 1250 6450
Wire Wire Line
	1250 6050 1350 6050
Wire Wire Line
	1350 6200 1250 6200
Connection ~ 1250 6200
Wire Wire Line
	1250 6350 1350 6350
Connection ~ 1250 6350
$Comp
L PCF8574 U1
U 1 1 5C5981E7
P 2750 5700
F 0 "U1" H 2700 5700 50  0000 L CNN
F 1 "PCF8574" H 2500 5450 50  0000 L CNN
F 2 "Housings_DIP:DIP-16_W7.62mm_LongPads" H 2750 5700 50  0001 C CNN
F 3 "" H 2750 5700 50  0000 C CNN
	1    2750 5700
	1    0    0    -1  
$EndComp
$Comp
L GND #PWR02
U 1 1 5C598324
P 2750 6500
F 0 "#PWR02" H 2750 6250 50  0001 C CNN
F 1 "GND" H 2750 6350 50  0000 C CNN
F 2 "" H 2750 6500 50  0000 C CNN
F 3 "" H 2750 6500 50  0000 C CNN
	1    2750 6500
	1    0    0    -1  
$EndComp
$Comp
L CONN_01X02 P5
U 1 1 60C8A8DF
P 7100 6850
F 0 "P5" H 7100 7000 50  0000 C CNN
F 1 "OUT4" V 7200 6850 50  0000 C CNN
F 2 "Connect:bornier2" H 7100 6850 50  0001 C CNN
F 3 "" H 7100 6850 50  0000 C CNN
	1    7100 6850
	1    0    0    -1  
$EndComp
$Comp
L CONN_01X02 P4
U 1 1 60C8A91D
P 7100 5350
F 0 "P4" H 7100 5500 50  0000 C CNN
F 1 "OUT3" V 7200 5350 50  0000 C CNN
F 2 "Connect:bornier2" H 7100 5350 50  0001 C CNN
F 3 "" H 7100 5350 50  0000 C CNN
	1    7100 5350
	1    0    0    -1  
$EndComp
Wire Wire Line
	5300 4900 5300 5500
Wire Wire Line
	6750 4900 5300 4900
Wire Wire Line
	6750 5400 6750 4900
Wire Wire Line
	6900 5400 6750 5400
Wire Wire Line
	6450 5300 6450 5600
Connection ~ 6450 5300
Wire Wire Line
	6450 5600 6350 5600
Wire Wire Line
	6350 5300 6900 5300
Wire Wire Line
	5300 5500 5550 5500
Wire Wire Line
	5300 5200 5550 5200
Wire Wire Line
	6800 5300 6800 5300
Connection ~ 5300 5200
Wire Wire Line
	5300 6400 5300 7000
Wire Wire Line
	6750 6400 5300 6400
Wire Wire Line
	6750 6900 6750 6400
Wire Wire Line
	6900 6900 6750 6900
Wire Wire Line
	6450 6800 6450 7100
Connection ~ 6450 6800
Wire Wire Line
	6450 7100 6350 7100
Wire Wire Line
	6350 6800 6900 6800
Wire Wire Line
	5300 7000 5550 7000
Wire Wire Line
	5300 6700 5550 6700
Wire Wire Line
	6800 6800 6800 6800
Connection ~ 5300 6700
$Comp
L CONN_01X02 P3
U 1 1 60C8AA05
P 7100 3850
F 0 "P3" H 7100 4000 50  0000 C CNN
F 1 "OUT2" V 7200 3850 50  0000 C CNN
F 2 "Connect:bornier2" H 7100 3850 50  0001 C CNN
F 3 "" H 7100 3850 50  0000 C CNN
	1    7100 3850
	1    0    0    -1  
$EndComp
Wire Wire Line
	5300 3400 5300 4000
Wire Wire Line
	6750 3400 5300 3400
Wire Wire Line
	6750 3900 6750 3400
Wire Wire Line
	6900 3900 6750 3900
Wire Wire Line
	6450 3800 6450 4100
Connection ~ 6450 3800
Wire Wire Line
	6450 4100 6350 4100
Wire Wire Line
	6350 3800 6900 3800
Wire Wire Line
	5300 4000 5550 4000
Wire Wire Line
	5300 3700 5550 3700
Wire Wire Line
	6800 3800 6800 3800
Connection ~ 5300 3700
$Comp
L CONN_01X02 P2
U 1 1 60C8AA23
P 7100 2350
F 0 "P2" H 7100 2500 50  0000 C CNN
F 1 "OUT1" V 7200 2350 50  0000 C CNN
F 2 "Connect:bornier2" H 7100 2350 50  0001 C CNN
F 3 "" H 7100 2350 50  0000 C CNN
	1    7100 2350
	1    0    0    -1  
$EndComp
Wire Wire Line
	5300 1900 5300 2500
Wire Wire Line
	6750 1900 5300 1900
Wire Wire Line
	6750 2400 6750 1900
Wire Wire Line
	6900 2400 6750 2400
Wire Wire Line
	6450 2300 6450 2600
Connection ~ 6450 2300
Wire Wire Line
	6450 2600 6350 2600
Wire Wire Line
	6350 2300 6900 2300
Wire Wire Line
	5300 2500 5550 2500
Wire Wire Line
	5300 2200 5550 2200
Wire Wire Line
	6800 2300 6800 2300
Connection ~ 5300 2200
$Comp
L GND #PWR03
U 1 1 60C8A44F
P 1550 5600
F 0 "#PWR03" H 1550 5350 50  0001 C CNN
F 1 "GND" H 1550 5450 50  0000 C CNN
F 2 "" H 1550 5600 50  0000 C CNN
F 3 "" H 1550 5600 50  0000 C CNN
	1    1550 5600
	1    0    0    -1  
$EndComp
Wire Wire Line
	1650 5200 1450 5200
Wire Wire Line
	1450 5500 1550 5500
Wire Wire Line
	1550 5500 1550 5600
$Comp
L VCC #PWR04
U 1 1 60C8A462
P 1550 4600
F 0 "#PWR04" H 1550 4450 50  0001 C CNN
F 1 "VCC" H 1550 4750 50  0000 C CNN
F 2 "" H 1550 4600 50  0000 C CNN
F 3 "" H 1550 4600 50  0000 C CNN
	1    1550 4600
	1    0    0    -1  
$EndComp
$Comp
L VDD #PWR05
U 1 1 60C8A477
P 1850 4700
F 0 "#PWR05" H 1850 4550 50  0001 C CNN
F 1 "VDD" H 1850 4850 50  0000 C CNN
F 2 "" H 1850 4700 50  0000 C CNN
F 3 "" H 1850 4700 50  0000 C CNN
	1    1850 4700
	1    0    0    -1  
$EndComp
Wire Wire Line
	1450 5400 2250 5400
Wire Wire Line
	1450 5300 2250 5300
$Comp
L VDD #PWR06
U 1 1 60C8A793
P 2750 4900
F 0 "#PWR06" H 2750 4750 50  0001 C CNN
F 1 "VDD" H 2750 5050 50  0000 C CNN
F 2 "" H 2750 4900 50  0000 C CNN
F 3 "" H 2750 4900 50  0000 C CNN
	1    2750 4900
	1    0    0    -1  
$EndComp
Wire Wire Line
	2750 4900 2750 5000
Wire Wire Line
	2750 6500 2750 6400
$Comp
L ULN2803A-RESCUE-quad-bistable-relay U2
U 1 1 60C8BDE2
P 4000 5500
F 0 "U2" H 4000 6025 50  0000 C CNN
F 1 "ULN2803A" H 4000 5950 50  0000 C CNN
F 2 "Housings_DIP:DIP-18_W7.62mm_LongPads" H 4050 4850 50  0001 L CNN
F 3 "" H 4100 5300 50  0001 C CNN
	1    4000 5500
	1    0    0    -1  
$EndComp
Wire Wire Line
	3250 5300 3600 5300
Wire Wire Line
	3600 5400 3250 5400
Wire Wire Line
	3250 5500 3600 5500
Wire Wire Line
	3600 5600 3250 5600
Wire Wire Line
	3250 5700 3600 5700
Wire Wire Line
	3600 5800 3250 5800
Wire Wire Line
	3250 5900 3600 5900
Wire Wire Line
	3600 6000 3250 6000
$Comp
L GND #PWR07
U 1 1 60C8C125
P 4000 6300
F 0 "#PWR07" H 4000 6050 50  0001 C CNN
F 1 "GND" H 4000 6150 50  0000 C CNN
F 2 "" H 4000 6300 50  0000 C CNN
F 3 "" H 4000 6300 50  0000 C CNN
	1    4000 6300
	1    0    0    -1  
$EndComp
Wire Wire Line
	4000 6300 4000 6200
$Comp
L VCC #PWR08
U 1 1 60C8C1FD
P 4500 5100
F 0 "#PWR08" H 4500 4950 50  0001 C CNN
F 1 "VCC" H 4500 5250 50  0000 C CNN
F 2 "" H 4500 5100 50  0000 C CNN
F 3 "" H 4500 5100 50  0000 C CNN
	1    4500 5100
	1    0    0    -1  
$EndComp
Wire Wire Line
	4500 5100 4500 5200
Wire Wire Line
	4500 5200 4400 5200
$Comp
L VCC #PWR09
U 1 1 60C8C2BE
P 5100 2600
F 0 "#PWR09" H 5100 2450 50  0001 C CNN
F 1 "VCC" H 5100 2750 50  0000 C CNN
F 2 "" H 5100 2600 50  0000 C CNN
F 3 "" H 5100 2600 50  0000 C CNN
	1    5100 2600
	1    0    0    -1  
$EndComp
Wire Wire Line
	5100 2600 5100 7300
Wire Wire Line
	5100 7300 5550 7300
Wire Wire Line
	5100 2800 5550 2800
Connection ~ 5100 2800
Wire Wire Line
	5100 4300 5550 4300
Connection ~ 5100 4300
Wire Wire Line
	5550 5800 5100 5800
Connection ~ 5100 5800
Wire Wire Line
	4550 2700 5550 2700
Wire Wire Line
	4600 3100 5550 3100
Wire Wire Line
	4650 4200 5550 4200
Wire Wire Line
	4700 4600 5550 4600
Wire Wire Line
	4800 6100 5550 6100
Wire Wire Line
	5550 7200 4900 7200
Wire Wire Line
	4850 7600 5550 7600
Wire Wire Line
	5550 5700 4750 5700
Wire Wire Line
	4400 5300 4900 5300
Wire Wire Line
	4900 5300 4900 7200
Wire Wire Line
	4400 5400 4850 5400
Wire Wire Line
	4850 5400 4850 7600
Wire Wire Line
	4750 5700 4750 5500
Wire Wire Line
	4750 5500 4400 5500
Wire Wire Line
	4800 6100 4800 5600
Wire Wire Line
	4800 5600 4400 5600
Wire Wire Line
	4650 4200 4650 5700
Wire Wire Line
	4650 5700 4400 5700
Wire Wire Line
	4700 4600 4700 5800
Wire Wire Line
	4700 5800 4400 5800
Wire Wire Line
	4400 5900 4550 5900
Wire Wire Line
	4550 5900 4550 2700
Wire Wire Line
	4600 3100 4600 6000
Wire Wire Line
	4600 6000 4400 6000
$Comp
L R R1
U 1 1 60C8DD04
P 1850 5050
F 0 "R1" V 1930 5050 50  0000 C CNN
F 1 "4.7K" V 1850 5050 50  0000 C CNN
F 2 "Resistors_ThroughHole:Resistor_Horizontal_RM10mm" V 1780 5050 50  0001 C CNN
F 3 "" H 1850 5050 50  0000 C CNN
	1    1850 5050
	1    0    0    -1  
$EndComp
$Comp
L R R2
U 1 1 60C8DD83
P 2050 5050
F 0 "R2" V 2130 5050 50  0000 C CNN
F 1 "4.7K" V 2050 5050 50  0000 C CNN
F 2 "Resistors_ThroughHole:Resistor_Horizontal_RM10mm" V 1980 5050 50  0001 C CNN
F 3 "" H 2050 5050 50  0000 C CNN
	1    2050 5050
	1    0    0    -1  
$EndComp
Wire Wire Line
	1450 4800 2050 4800
Wire Wire Line
	2050 4800 2050 4900
Wire Wire Line
	1850 4700 1850 4900
Connection ~ 1850 4800
Wire Wire Line
	1850 5200 1850 5300
Connection ~ 1850 5300
Wire Wire Line
	2050 5200 2050 5400
Connection ~ 2050 5400
$Comp
L OMRON-G5RL-K1-E K1
U 1 1 60CA0E78
P 5950 2450
F 0 "K1" H 5900 2850 50  0000 C CNN
F 1 "OMRON-G5RL-K1-E" H 5945 1650 50  0000 C CNN
F 2 "myRelays:Relay_SPDT_Omron-G5RL-K1-E" H 5950 2450 50  0001 C CNN
F 3 "" H 5950 2450 50  0000 C CNN
	1    5950 2450
	1    0    0    -1  
$EndComp
$Comp
L OMRON-G5RL-K1-E K2
U 1 1 60CA0EDF
P 5950 3950
F 0 "K2" H 5900 4350 50  0000 C CNN
F 1 "OMRON-G5RL-K1-E" H 5945 3150 50  0000 C CNN
F 2 "myRelays:Relay_SPDT_Omron-G5RL-K1-E" H 5950 3950 50  0001 C CNN
F 3 "" H 5950 3950 50  0000 C CNN
	1    5950 3950
	1    0    0    -1  
$EndComp
$Comp
L OMRON-G5RL-K1-E K3
U 1 1 60CA0F39
P 5950 5450
F 0 "K3" H 5900 5850 50  0000 C CNN
F 1 "OMRON-G5RL-K1-E" H 5945 4650 50  0000 C CNN
F 2 "myRelays:Relay_SPDT_Omron-G5RL-K1-E" H 5950 5450 50  0001 C CNN
F 3 "" H 5950 5450 50  0000 C CNN
	1    5950 5450
	1    0    0    -1  
$EndComp
$Comp
L OMRON-G5RL-K1-E K4
U 1 1 60CA0FAA
P 5950 6950
F 0 "K4" H 5900 7350 50  0000 C CNN
F 1 "OMRON-G5RL-K1-E" H 5945 6150 50  0000 C CNN
F 2 "myRelays:Relay_SPDT_Omron-G5RL-K1-E" H 5950 6950 50  0001 C CNN
F 3 "" H 5950 6950 50  0000 C CNN
	1    5950 6950
	1    0    0    -1  
$EndComp
$Comp
L AddressSelector3 JP2
U 1 1 60E1E112
P 1450 6050
F 0 "JP2" H 1490 6140 50  0000 C CNN
F 1 "ADDRESS" H 1470 6210 50  0000 C CNN
F 2 "mySwitches:AdressSelector3" H 1450 6050 50  0001 C CNN
F 3 "" H 1450 6050 50  0000 C CNN
	1    1450 6050
	1    0    0    -1  
$EndComp
$Comp
L VDD #PWR010
U 1 1 60E1E215
P 1750 5950
F 0 "#PWR010" H 1750 5800 50  0001 C CNN
F 1 "VDD" H 1750 6100 50  0000 C CNN
F 2 "" H 1750 5950 50  0000 C CNN
F 3 "" H 1750 5950 50  0000 C CNN
	1    1750 5950
	1    0    0    -1  
$EndComp
Wire Wire Line
	1750 5950 1750 6350
Wire Wire Line
	1750 6350 1650 6350
Wire Wire Line
	1650 6200 1750 6200
Connection ~ 1750 6200
Wire Wire Line
	1650 6050 1750 6050
Connection ~ 1750 6050
Wire Wire Line
	2250 5600 2000 5600
Wire Wire Line
	2000 5600 2000 6100
Wire Wire Line
	2000 6100 1500 6100
Wire Wire Line
	1500 6250 2050 6250
Wire Wire Line
	2050 6250 2050 5700
Wire Wire Line
	2050 5700 2250 5700
Wire Wire Line
	2250 5800 2100 5800
Wire Wire Line
	2100 5800 2100 6400
Wire Wire Line
	2100 6400 1500 6400
$Comp
L Conn_01x04 J2
U 1 1 6113F4F0
P 1250 5400
F 0 "J2" H 1250 5600 50  0000 C CNN
F 1 "IN" V 1350 5350 50  0000 C CNN
F 2 "Pin_Headers:Pin_Header_Straight_1x04_Pitch2.54mm" H 1250 5400 50  0001 C CNN
F 3 "" H 1250 5400 50  0001 C CNN
	1    1250 5400
	-1   0    0    1   
$EndComp
Wire Wire Line
	1650 4800 1650 5200
$Comp
L Conn_01x03 J1
U 1 1 6113F787
P 1250 4800
F 0 "J1" H 1250 5000 50  0000 C CNN
F 1 "PWR" V 1350 4800 50  0000 C CNN
F 2 "Pin_Headers:Pin_Header_Straight_1x03_Pitch2.54mm" H 1250 4800 50  0001 C CNN
F 3 "" H 1250 4800 50  0001 C CNN
	1    1250 4800
	-1   0    0    1   
$EndComp
$Comp
L GND #PWR011
U 1 1 6113F7D7
P 1550 5000
F 0 "#PWR011" H 1550 4750 50  0001 C CNN
F 1 "GND" H 1550 4850 50  0000 C CNN
F 2 "" H 1550 5000 50  0000 C CNN
F 3 "" H 1550 5000 50  0000 C CNN
	1    1550 5000
	1    0    0    -1  
$EndComp
Wire Wire Line
	1550 5000 1550 4900
Wire Wire Line
	1550 4900 1450 4900
Connection ~ 1650 4800
Wire Wire Line
	1550 4600 1550 4700
Wire Wire Line
	1550 4700 1450 4700
Text Notes 1200 4350 0    60   ~ 0
Jumper on J1 2&3\nfor 5V power\nElse power on 1&3
$EndSCHEMATC
