EESchema Schematic File Version 2
LIBS:quad-bistable-relay-rescue
LIBS:power
LIBS:device
LIBS:transistors
LIBS:conn
LIBS:linear
LIBS:regul
LIBS:74xx
LIBS:cmos4000
LIBS:adc-dac
LIBS:memory
LIBS:xilinx
LIBS:microcontrollers
LIBS:dsp
LIBS:microchip
LIBS:analog_switches
LIBS:motorola
LIBS:texas
LIBS:intel
LIBS:audio
LIBS:interface
LIBS:digital-audio
LIBS:philips
LIBS:display
LIBS:cypress
LIBS:siliconi
LIBS:opto
LIBS:atmel
LIBS:contrib
LIBS:valves
LIBS:my-regulators
LIBS:my-relays
LIBS:my-power-supplies
LIBS:my-switches
LIBS:my-ICs
LIBS:quad-bistable-relay-cache
EELAYER 25 0
EELAYER END
$Descr A4 8268 11693 portrait
encoding utf-8
Sheet 1 1
Title ""
Date ""
Rev ""
Comp ""
Comment1 ""
Comment2 ""
Comment3 ""
Comment4 ""
$EndDescr
$Comp
L R R8
U 1 1 60ACE149
P 4050 9250
F 0 "R8" V 4130 9250 50  0000 C CNN
F 1 "680" V 4050 9250 50  0000 C CNN
F 2 "Resistors_ThroughHole:Resistor_Horizontal_RM10mm" V 3980 9250 50  0001 C CNN
F 3 "" H 4050 9250 50  0000 C CNN
	1    4050 9250
	0    1    1    0   
$EndComp
$Comp
L R R7
U 1 1 60ACE150
P 4050 8850
F 0 "R7" V 4130 8850 50  0000 C CNN
F 1 "680" V 4050 8850 50  0000 C CNN
F 2 "Resistors_ThroughHole:Resistor_Horizontal_RM10mm" V 3980 8850 50  0001 C CNN
F 3 "" H 4050 8850 50  0000 C CNN
	1    4050 8850
	0    1    1    0   
$EndComp
$Comp
L D D8
U 1 1 60ACE157
P 4800 8200
F 0 "D8" H 4800 8300 50  0000 C CNN
F 1 "1N4148" H 4800 8100 50  0000 C CNN
F 2 "Diodes_ThroughHole:Diode_DO-35_SOD27_Horizontal_RM10" H 4800 8200 50  0001 C CNN
F 3 "" H 4800 8200 50  0000 C CNN
	1    4800 8200
	0    1    1    0   
$EndComp
$Comp
L D D4
U 1 1 60ACE15E
P 4400 8200
F 0 "D4" H 4400 8300 50  0000 C CNN
F 1 "1N4148" H 4400 8100 50  0000 C CNN
F 2 "Diodes_ThroughHole:Diode_DO-35_SOD27_Horizontal_RM10" H 4400 8200 50  0001 C CNN
F 3 "" H 4400 8200 50  0000 C CNN
	1    4400 8200
	0    1    1    0   
$EndComp
$Comp
L PN2222A Q8
U 1 1 60ACE165
P 4900 8850
F 0 "Q8" H 5100 8925 50  0000 L CNN
F 1 "2N2222" H 5100 8850 50  0000 L CNN
F 2 "TO_SOT_Packages_THT:TO-92_Inline_Wide" H 5100 8775 50  0001 L CIN
F 3 "" H 4900 8850 50  0000 L CNN
	1    4900 8850
	1    0    0    -1  
$EndComp
$Comp
L PN2222A Q4
U 1 1 60ACE16C
P 4500 9250
F 0 "Q4" H 4700 9325 50  0000 L CNN
F 1 "2N2222" H 4700 9250 50  0000 L CNN
F 2 "TO_SOT_Packages_THT:TO-92_Inline_Wide" H 4700 9175 50  0001 L CIN
F 3 "" H 4500 9250 50  0000 L CNN
	1    4500 9250
	1    0    0    -1  
$EndComp
$Comp
L GND #PWR01
U 1 1 60ACE173
P 4600 9650
F 0 "#PWR01" H 4600 9400 50  0001 C CNN
F 1 "GND" H 4600 9500 50  0000 C CNN
F 2 "" H 4600 9650 50  0000 C CNN
F 3 "" H 4600 9650 50  0000 C CNN
	1    4600 9650
	1    0    0    -1  
$EndComp
$Comp
L OMRON-G5RL-K1A-E K4
U 1 1 60ACE17F
P 6000 7600
F 0 "K4" H 5950 8000 50  0000 C CNN
F 1 "OMRON-G5RL-K1A-E" H 5995 6800 50  0000 C CNN
F 2 "myRelays:Relay_SPST_Omron-G5RL-K1A-E" H 6000 7600 50  0001 C CNN
F 3 "" H 6000 7600 50  0000 C CNN
	1    6000 7600
	1    0    0    -1  
$EndComp
$Comp
L GND #PWR02
U 1 1 60ACE2B7
P 1650 7550
F 0 "#PWR02" H 1650 7300 50  0001 C CNN
F 1 "GND" H 1650 7400 50  0000 C CNN
F 2 "" H 1650 7550 50  0000 C CNN
F 3 "" H 1650 7550 50  0000 C CNN
	1    1650 7550
	1    0    0    -1  
$EndComp
$Comp
L CONN_01X02 P5
U 1 1 60ACE4F5
P 7150 7800
F 0 "P5" H 7150 7950 50  0000 C CNN
F 1 "OUT4" V 7250 7800 50  0000 C CNN
F 2 "Connect:bornier2" H 7150 7800 50  0001 C CNN
F 3 "" H 7150 7800 50  0000 C CNN
	1    7150 7800
	1    0    0    -1  
$EndComp
$Comp
L R R6
U 1 1 60AF8265
P 4050 7150
F 0 "R6" V 4130 7150 50  0000 C CNN
F 1 "680" V 4050 7150 50  0000 C CNN
F 2 "Resistors_ThroughHole:Resistor_Horizontal_RM10mm" V 3980 7150 50  0001 C CNN
F 3 "" H 4050 7150 50  0000 C CNN
	1    4050 7150
	0    1    1    0   
$EndComp
$Comp
L R R5
U 1 1 60AF826B
P 4050 6750
F 0 "R5" V 4130 6750 50  0000 C CNN
F 1 "680" V 4050 6750 50  0000 C CNN
F 2 "Resistors_ThroughHole:Resistor_Horizontal_RM10mm" V 3980 6750 50  0001 C CNN
F 3 "" H 4050 6750 50  0000 C CNN
	1    4050 6750
	0    1    1    0   
$EndComp
$Comp
L D D7
U 1 1 60AF8271
P 4800 6100
F 0 "D7" H 4800 6200 50  0000 C CNN
F 1 "1N4148" H 4800 6000 50  0000 C CNN
F 2 "Diodes_ThroughHole:Diode_DO-35_SOD27_Horizontal_RM10" H 4800 6100 50  0001 C CNN
F 3 "" H 4800 6100 50  0000 C CNN
	1    4800 6100
	0    1    1    0   
$EndComp
$Comp
L D D3
U 1 1 60AF8277
P 4400 6100
F 0 "D3" H 4400 6200 50  0000 C CNN
F 1 "1N4148" H 4400 6000 50  0000 C CNN
F 2 "Diodes_ThroughHole:Diode_DO-35_SOD27_Horizontal_RM10" H 4400 6100 50  0001 C CNN
F 3 "" H 4400 6100 50  0000 C CNN
	1    4400 6100
	0    1    1    0   
$EndComp
$Comp
L PN2222A Q7
U 1 1 60AF827D
P 4900 6750
F 0 "Q7" H 5100 6825 50  0000 L CNN
F 1 "2N2222" H 5100 6750 50  0000 L CNN
F 2 "TO_SOT_Packages_THT:TO-92_Inline_Wide" H 5100 6675 50  0001 L CIN
F 3 "" H 4900 6750 50  0000 L CNN
	1    4900 6750
	1    0    0    -1  
$EndComp
$Comp
L PN2222A Q3
U 1 1 60AF8283
P 4500 7150
F 0 "Q3" H 4700 7225 50  0000 L CNN
F 1 "2N2222" H 4700 7150 50  0000 L CNN
F 2 "TO_SOT_Packages_THT:TO-92_Inline_Wide" H 4700 7075 50  0001 L CIN
F 3 "" H 4500 7150 50  0000 L CNN
	1    4500 7150
	1    0    0    -1  
$EndComp
$Comp
L GND #PWR03
U 1 1 60AF8289
P 4600 7550
F 0 "#PWR03" H 4600 7300 50  0001 C CNN
F 1 "GND" H 4600 7400 50  0000 C CNN
F 2 "" H 4600 7550 50  0000 C CNN
F 3 "" H 4600 7550 50  0000 C CNN
	1    4600 7550
	1    0    0    -1  
$EndComp
$Comp
L OMRON-G5RL-K1A-E K3
U 1 1 60AF828F
P 6000 5500
F 0 "K3" H 5950 5900 50  0000 C CNN
F 1 "OMRON-G5RL-K1A-E" H 5995 4700 50  0000 C CNN
F 2 "myRelays:Relay_SPST_Omron-G5RL-K1A-E" H 6000 5500 50  0001 C CNN
F 3 "" H 6000 5500 50  0000 C CNN
	1    6000 5500
	1    0    0    -1  
$EndComp
$Comp
L CONN_01X02 P4
U 1 1 60AF8295
P 7150 5700
F 0 "P4" H 7150 5850 50  0000 C CNN
F 1 "OUT3" V 7250 5700 50  0000 C CNN
F 2 "Connect:bornier2" H 7150 5700 50  0001 C CNN
F 3 "" H 7150 5700 50  0000 C CNN
	1    7150 5700
	1    0    0    -1  
$EndComp
$Comp
L R R4
U 1 1 60AF8691
P 4050 5050
F 0 "R4" V 4130 5050 50  0000 C CNN
F 1 "680" V 4050 5050 50  0000 C CNN
F 2 "Resistors_ThroughHole:Resistor_Horizontal_RM10mm" V 3980 5050 50  0001 C CNN
F 3 "" H 4050 5050 50  0000 C CNN
	1    4050 5050
	0    1    1    0   
$EndComp
$Comp
L R R3
U 1 1 60AF8697
P 4050 4650
F 0 "R3" V 4130 4650 50  0000 C CNN
F 1 "680" V 4050 4650 50  0000 C CNN
F 2 "Resistors_ThroughHole:Resistor_Horizontal_RM10mm" V 3980 4650 50  0001 C CNN
F 3 "" H 4050 4650 50  0000 C CNN
	1    4050 4650
	0    1    1    0   
$EndComp
$Comp
L D D6
U 1 1 60AF869D
P 4800 4000
F 0 "D6" H 4800 4100 50  0000 C CNN
F 1 "1N4148" H 4800 3900 50  0000 C CNN
F 2 "Diodes_ThroughHole:Diode_DO-35_SOD27_Horizontal_RM10" H 4800 4000 50  0001 C CNN
F 3 "" H 4800 4000 50  0000 C CNN
	1    4800 4000
	0    1    1    0   
$EndComp
$Comp
L D D2
U 1 1 60AF86A3
P 4400 4000
F 0 "D2" H 4400 4100 50  0000 C CNN
F 1 "1N4148" H 4400 3900 50  0000 C CNN
F 2 "Diodes_ThroughHole:Diode_DO-35_SOD27_Horizontal_RM10" H 4400 4000 50  0001 C CNN
F 3 "" H 4400 4000 50  0000 C CNN
	1    4400 4000
	0    1    1    0   
$EndComp
$Comp
L PN2222A Q6
U 1 1 60AF86A9
P 4900 4650
F 0 "Q6" H 5100 4725 50  0000 L CNN
F 1 "2N2222" H 5100 4650 50  0000 L CNN
F 2 "TO_SOT_Packages_THT:TO-92_Inline_Wide" H 5100 4575 50  0001 L CIN
F 3 "" H 4900 4650 50  0000 L CNN
	1    4900 4650
	1    0    0    -1  
$EndComp
$Comp
L PN2222A Q2
U 1 1 60AF86AF
P 4500 5050
F 0 "Q2" H 4700 5125 50  0000 L CNN
F 1 "2N2222" H 4700 5050 50  0000 L CNN
F 2 "TO_SOT_Packages_THT:TO-92_Inline_Wide" H 4700 4975 50  0001 L CIN
F 3 "" H 4500 5050 50  0000 L CNN
	1    4500 5050
	1    0    0    -1  
$EndComp
$Comp
L GND #PWR04
U 1 1 60AF86B5
P 4600 5450
F 0 "#PWR04" H 4600 5200 50  0001 C CNN
F 1 "GND" H 4600 5300 50  0000 C CNN
F 2 "" H 4600 5450 50  0000 C CNN
F 3 "" H 4600 5450 50  0000 C CNN
	1    4600 5450
	1    0    0    -1  
$EndComp
$Comp
L R R2
U 1 1 60AF897C
P 4050 2950
F 0 "R2" V 4130 2950 50  0000 C CNN
F 1 "680" V 4050 2950 50  0000 C CNN
F 2 "Resistors_ThroughHole:Resistor_Horizontal_RM10mm" V 3980 2950 50  0001 C CNN
F 3 "" H 4050 2950 50  0000 C CNN
	1    4050 2950
	0    1    1    0   
$EndComp
$Comp
L R R1
U 1 1 60AF8982
P 4050 2550
F 0 "R1" V 4130 2550 50  0000 C CNN
F 1 "680" V 4050 2550 50  0000 C CNN
F 2 "Resistors_ThroughHole:Resistor_Horizontal_RM10mm" V 3980 2550 50  0001 C CNN
F 3 "" H 4050 2550 50  0000 C CNN
	1    4050 2550
	0    1    1    0   
$EndComp
$Comp
L D D5
U 1 1 60AF8988
P 4800 1900
F 0 "D5" H 4800 2000 50  0000 C CNN
F 1 "1N4148" H 4800 1800 50  0000 C CNN
F 2 "Diodes_ThroughHole:Diode_DO-35_SOD27_Horizontal_RM10" H 4800 1900 50  0001 C CNN
F 3 "" H 4800 1900 50  0000 C CNN
	1    4800 1900
	0    1    1    0   
$EndComp
$Comp
L D D1
U 1 1 60AF898E
P 4400 1900
F 0 "D1" H 4400 2000 50  0000 C CNN
F 1 "1N4148" H 4400 1800 50  0000 C CNN
F 2 "Diodes_ThroughHole:Diode_DO-35_SOD27_Horizontal_RM10" H 4400 1900 50  0001 C CNN
F 3 "" H 4400 1900 50  0000 C CNN
	1    4400 1900
	0    1    1    0   
$EndComp
$Comp
L PN2222A Q5
U 1 1 60AF8994
P 4900 2550
F 0 "Q5" H 5100 2625 50  0000 L CNN
F 1 "2N2222" H 5100 2550 50  0000 L CNN
F 2 "TO_SOT_Packages_THT:TO-92_Inline_Wide" H 5100 2475 50  0001 L CIN
F 3 "" H 4900 2550 50  0000 L CNN
	1    4900 2550
	1    0    0    -1  
$EndComp
$Comp
L PN2222A Q1
U 1 1 60AF899A
P 4500 2950
F 0 "Q1" H 4700 3025 50  0000 L CNN
F 1 "2N2222" H 4700 2950 50  0000 L CNN
F 2 "TO_SOT_Packages_THT:TO-92_Inline_Wide" H 4700 2875 50  0001 L CIN
F 3 "" H 4500 2950 50  0000 L CNN
	1    4500 2950
	1    0    0    -1  
$EndComp
$Comp
L GND #PWR05
U 1 1 60AF89A0
P 4600 3350
F 0 "#PWR05" H 4600 3100 50  0001 C CNN
F 1 "GND" H 4600 3200 50  0000 C CNN
F 2 "" H 4600 3350 50  0000 C CNN
F 3 "" H 4600 3350 50  0000 C CNN
	1    4600 3350
	1    0    0    -1  
$EndComp
$Comp
L OMRON-G5RL-K1A-E K2
U 1 1 60AF8E9F
P 6000 3400
F 0 "K2" H 5950 3800 50  0000 C CNN
F 1 "OMRON-G5RL-K1A-E" H 5995 2600 50  0000 C CNN
F 2 "myRelays:Relay_SPST_Omron-G5RL-K1A-E" H 6000 3400 50  0001 C CNN
F 3 "" H 6000 3400 50  0000 C CNN
	1    6000 3400
	1    0    0    -1  
$EndComp
$Comp
L CONN_01X02 P3
U 1 1 60AF8EA5
P 7150 3600
F 0 "P3" H 7150 3750 50  0000 C CNN
F 1 "OUT2" V 7250 3600 50  0000 C CNN
F 2 "Connect:bornier2" H 7150 3600 50  0001 C CNN
F 3 "" H 7150 3600 50  0000 C CNN
	1    7150 3600
	1    0    0    -1  
$EndComp
$Comp
L OMRON-G5RL-K1A-E K1
U 1 1 60AF9026
P 6000 1300
F 0 "K1" H 5950 1700 50  0000 C CNN
F 1 "OMRON-G5RL-K1A-E" H 5995 500 50  0000 C CNN
F 2 "myRelays:Relay_SPST_Omron-G5RL-K1A-E" H 6000 1300 50  0001 C CNN
F 3 "" H 6000 1300 50  0000 C CNN
	1    6000 1300
	1    0    0    -1  
$EndComp
$Comp
L CONN_01X02 P2
U 1 1 60AF902C
P 7150 1500
F 0 "P2" H 7150 1650 50  0000 C CNN
F 1 "OUT1" V 7250 1500 50  0000 C CNN
F 2 "Connect:bornier2" H 7150 1500 50  0001 C CNN
F 3 "" H 7150 1500 50  0000 C CNN
	1    7150 1500
	1    0    0    -1  
$EndComp
$Comp
L VCC #PWR06
U 1 1 60AF98B4
P 4400 1550
F 0 "#PWR06" H 4400 1400 50  0001 C CNN
F 1 "VCC" H 4400 1700 50  0000 C CNN
F 2 "" H 4400 1550 50  0000 C CNN
F 3 "" H 4400 1550 50  0000 C CNN
	1    4400 1550
	1    0    0    -1  
$EndComp
$Comp
L VCC #PWR07
U 1 1 60AF992C
P 4400 3650
F 0 "#PWR07" H 4400 3500 50  0001 C CNN
F 1 "VCC" H 4400 3800 50  0000 C CNN
F 2 "" H 4400 3650 50  0000 C CNN
F 3 "" H 4400 3650 50  0000 C CNN
	1    4400 3650
	1    0    0    -1  
$EndComp
$Comp
L VCC #PWR08
U 1 1 60AF999D
P 4400 5750
F 0 "#PWR08" H 4400 5600 50  0001 C CNN
F 1 "VCC" H 4400 5900 50  0000 C CNN
F 2 "" H 4400 5750 50  0000 C CNN
F 3 "" H 4400 5750 50  0000 C CNN
	1    4400 5750
	1    0    0    -1  
$EndComp
$Comp
L VCC #PWR09
U 1 1 60AF9A54
P 4400 7850
F 0 "#PWR09" H 4400 7700 50  0001 C CNN
F 1 "VCC" H 4400 8000 50  0000 C CNN
F 2 "" H 4400 7850 50  0000 C CNN
F 3 "" H 4400 7850 50  0000 C CNN
	1    4400 7850
	1    0    0    -1  
$EndComp
$Comp
L VCC #PWR010
U 1 1 60AF9B36
P 1650 6550
F 0 "#PWR010" H 1650 6400 50  0001 C CNN
F 1 "VCC" H 1650 6700 50  0000 C CNN
F 2 "" H 1650 6550 50  0000 C CNN
F 3 "" H 1650 6550 50  0000 C CNN
	1    1650 6550
	1    0    0    -1  
$EndComp
$Comp
L VDD #PWR011
U 1 1 60AFB3EC
P 2050 6650
F 0 "#PWR011" H 2050 6500 50  0001 C CNN
F 1 "VDD" H 2050 6800 50  0000 C CNN
F 2 "" H 2050 6650 50  0000 C CNN
F 3 "" H 2050 6650 50  0000 C CNN
	1    2050 6650
	1    0    0    -1  
$EndComp
$Comp
L R R9
U 1 1 60C8E4D8
P 2050 7000
F 0 "R9" V 2130 7000 50  0000 C CNN
F 1 "4.7K" V 2050 7000 50  0000 C CNN
F 2 "Resistors_ThroughHole:Resistor_Horizontal_RM10mm" V 1980 7000 50  0001 C CNN
F 3 "" H 2050 7000 50  0000 C CNN
	1    2050 7000
	-1   0    0    1   
$EndComp
$Comp
L R R10
U 1 1 60C8E605
P 2250 7000
F 0 "R10" V 2330 7000 50  0000 C CNN
F 1 "4.7K" V 2250 7000 50  0000 C CNN
F 2 "Resistors_ThroughHole:Resistor_Horizontal_RM10mm" V 2180 7000 50  0001 C CNN
F 3 "" H 2250 7000 50  0000 C CNN
	1    2250 7000
	-1   0    0    1   
$EndComp
$Comp
L VDD #PWR012
U 1 1 60E19CF5
P 2650 5050
F 0 "#PWR012" H 2650 4900 50  0001 C CNN
F 1 "VDD" H 2650 5200 50  0000 C CNN
F 2 "" H 2650 5050 50  0000 C CNN
F 3 "" H 2650 5050 50  0000 C CNN
	1    2650 5050
	1    0    0    -1  
$EndComp
$Comp
L GND #PWR013
U 1 1 60E1B82A
P 1350 5700
F 0 "#PWR013" H 1350 5450 50  0001 C CNN
F 1 "GND" H 1350 5550 50  0000 C CNN
F 2 "" H 1350 5700 50  0000 C CNN
F 3 "" H 1350 5700 50  0000 C CNN
	1    1350 5700
	1    0    0    -1  
$EndComp
$Comp
L VDD #PWR014
U 1 1 60E1B830
P 1800 5100
F 0 "#PWR014" H 1800 4950 50  0001 C CNN
F 1 "VDD" H 1800 5250 50  0000 C CNN
F 2 "" H 1800 5100 50  0000 C CNN
F 3 "" H 1800 5100 50  0000 C CNN
	1    1800 5100
	1    0    0    -1  
$EndComp
$Comp
L AddressSelector3 JP2
U 1 1 60E1B836
P 1550 5300
F 0 "JP2" H 1590 5390 50  0000 C CNN
F 1 "ADDRESS" H 1570 5460 50  0001 C CNN
F 2 "mySwitches:AdressSelector3" H 1550 5300 50  0001 C CNN
F 3 "" H 1550 5300 50  0000 C CNN
	1    1550 5300
	1    0    0    -1  
$EndComp
$Comp
L MCP23008-RESCUE-quad-bistable-relay U1
U 1 1 60E1F70A
P 2750 6050
F 0 "U1" H 2750 6300 50  0000 C CNN
F 1 "MCP23008" H 2800 6150 50  0000 C CNN
F 2 "Housings_DIP:DIP-18_W7.62mm_LongPads" H 2750 6150 60  0001 C CNN
F 3 "" H 2750 6150 60  0000 C CNN
	1    2750 6050
	-1   0    0    -1  
$EndComp
$Comp
L VSS #PWR015
U 1 1 60E5B986
P 2750 7350
F 0 "#PWR015" H 2750 7200 50  0001 C CNN
F 1 "VSS" H 2750 7500 50  0000 C CNN
F 2 "" H 2750 7350 50  0000 C CNN
F 3 "" H 2750 7350 50  0000 C CNN
	1    2750 7350
	1    0    0    -1  
$EndComp
$Comp
L Conn_01x03 J1
U 1 1 6113ED9A
P 1350 6750
F 0 "J1" H 1350 6950 50  0000 C CNN
F 1 "PWR" V 1450 6750 50  0000 C CNN
F 2 "Pin_Headers:Pin_Header_Straight_1x03_Pitch2.54mm" H 1350 6750 50  0001 C CNN
F 3 "" H 1350 6750 50  0001 C CNN
	1    1350 6750
	-1   0    0    1   
$EndComp
$Comp
L GND #PWR016
U 1 1 6113F38B
P 1650 6950
F 0 "#PWR016" H 1650 6700 50  0001 C CNN
F 1 "GND" H 1650 6800 50  0000 C CNN
F 2 "" H 1650 6950 50  0000 C CNN
F 3 "" H 1650 6950 50  0000 C CNN
	1    1650 6950
	1    0    0    -1  
$EndComp
$Comp
L Conn_01x04 J2
U 1 1 6113F6AC
P 1350 7350
F 0 "J2" H 1350 7550 50  0000 C CNN
F 1 "IN" V 1450 7300 50  0000 C CNN
F 2 "Pin_Headers:Pin_Header_Straight_1x04_Pitch2.54mm" H 1350 7350 50  0001 C CNN
F 3 "" H 1350 7350 50  0001 C CNN
	1    1350 7350
	-1   0    0    1   
$EndComp
Text Notes 1250 6300 0    60   ~ 0
Jumper on J1 2&3\nfor 5V power\nElse power on 1&3
Wire Wire Line
	5350 4950 5350 5250
Wire Wire Line
	5350 5250 5350 5550
Wire Wire Line
	6800 4950 5350 4950
Wire Wire Line
	6800 5750 6800 4950
Wire Wire Line
	6950 5750 6800 5750
Wire Wire Line
	6500 5350 6500 5650
Connection ~ 6500 5350
Wire Wire Line
	6500 5650 6400 5650
Connection ~ 4800 5850
Wire Wire Line
	6850 5650 6950 5650
Wire Wire Line
	5350 5550 5600 5550
Wire Wire Line
	6400 5350 6500 5350
Wire Wire Line
	6500 5350 6850 5350
Wire Wire Line
	5350 5250 5600 5250
Connection ~ 4400 5850
Connection ~ 4600 7450
Wire Wire Line
	4600 7450 5000 7450
Wire Wire Line
	4200 7150 4300 7150
Wire Wire Line
	4600 7350 4600 7450
Wire Wire Line
	4600 7450 4600 7550
Wire Wire Line
	4600 5750 4600 6450
Wire Wire Line
	4600 6450 4600 6950
Wire Wire Line
	4200 6750 4700 6750
Wire Wire Line
	5000 7450 5000 6950
Wire Wire Line
	5000 6150 5000 6450
Wire Wire Line
	5000 6450 5000 6550
Wire Wire Line
	4800 6250 4800 6450
Wire Wire Line
	4800 6450 5000 6450
Connection ~ 5000 6450
Wire Wire Line
	4400 5750 4400 5850
Wire Wire Line
	4400 5850 4400 5950
Wire Wire Line
	4800 5850 4800 5950
Wire Wire Line
	4400 6250 4400 6450
Wire Wire Line
	4400 6450 4600 6450
Connection ~ 4600 6450
Wire Wire Line
	6850 5350 6850 5650
Connection ~ 5350 5250
Wire Wire Line
	4400 7950 4800 7950
Wire Wire Line
	4800 7950 5600 7950
Wire Wire Line
	1750 7150 1550 7150
Wire Wire Line
	1750 6750 1750 6750
Wire Wire Line
	1750 6750 1750 7150
Wire Wire Line
	1550 7350 2250 7350
Wire Wire Line
	2250 7350 2550 7350
Wire Wire Line
	1550 7250 2050 7250
Wire Wire Line
	2050 7250 2650 7250
Wire Wire Line
	5350 7050 5350 7350
Wire Wire Line
	5350 7350 5350 7650
Wire Wire Line
	6800 7050 5350 7050
Wire Wire Line
	6800 7850 6800 7050
Wire Wire Line
	6950 7850 6800 7850
Wire Wire Line
	6500 7450 6500 7750
Connection ~ 6500 7450
Wire Wire Line
	6500 7750 6400 7750
Connection ~ 4800 7950
Wire Wire Line
	4600 7850 5600 7850
Wire Wire Line
	5600 8250 5000 8250
Wire Wire Line
	6850 7750 6950 7750
Wire Wire Line
	5350 7650 5600 7650
Wire Wire Line
	6400 7450 6500 7450
Wire Wire Line
	6500 7450 6850 7450
Wire Wire Line
	5350 7350 5600 7350
Connection ~ 4400 7950
Connection ~ 4600 9550
Wire Wire Line
	4600 9550 5000 9550
Wire Wire Line
	4200 9250 4300 9250
Wire Wire Line
	4600 9450 4600 9550
Wire Wire Line
	4600 9550 4600 9650
Wire Wire Line
	4600 7850 4600 8550
Wire Wire Line
	4600 8550 4600 9050
Wire Wire Line
	4200 8850 4700 8850
Wire Wire Line
	5000 9550 5000 9050
Wire Wire Line
	5000 8250 5000 8550
Wire Wire Line
	5000 8550 5000 8650
Wire Wire Line
	4800 8350 4800 8550
Wire Wire Line
	4800 8550 5000 8550
Connection ~ 5000 8550
Wire Wire Line
	4400 7850 4400 7950
Wire Wire Line
	4400 7950 4400 8050
Wire Wire Line
	4800 7950 4800 8050
Wire Wire Line
	4400 8350 4400 8550
Wire Wire Line
	4400 8550 4600 8550
Connection ~ 4600 8550
Wire Wire Line
	1550 7450 1650 7450
Wire Wire Line
	1650 7450 2750 7450
Wire Wire Line
	1650 7450 1650 7550
Wire Wire Line
	6850 7450 6850 7750
Connection ~ 5350 7350
Connection ~ 4800 3750
Connection ~ 4400 3750
Connection ~ 4600 5350
Wire Wire Line
	4600 5350 5000 5350
Wire Wire Line
	4200 5050 4300 5050
Wire Wire Line
	4600 5250 4600 5350
Wire Wire Line
	4600 5350 4600 5450
Wire Wire Line
	4600 3650 4600 4350
Wire Wire Line
	4600 4350 4600 4850
Wire Wire Line
	4200 4650 4700 4650
Wire Wire Line
	5000 5350 5000 4850
Wire Wire Line
	5000 4050 5000 4350
Wire Wire Line
	5000 4350 5000 4450
Wire Wire Line
	4800 4150 4800 4350
Wire Wire Line
	4800 4350 5000 4350
Connection ~ 5000 4350
Wire Wire Line
	4400 3650 4400 3750
Wire Wire Line
	4400 3750 4400 3850
Wire Wire Line
	4800 3750 4800 3850
Wire Wire Line
	4400 4150 4400 4350
Wire Wire Line
	4400 4350 4600 4350
Connection ~ 4600 4350
Connection ~ 4800 1650
Connection ~ 4400 1650
Connection ~ 4600 3250
Wire Wire Line
	4600 3250 5000 3250
Wire Wire Line
	4200 2950 4300 2950
Wire Wire Line
	4600 3150 4600 3250
Wire Wire Line
	4600 3250 4600 3350
Wire Wire Line
	4600 1550 4600 2250
Wire Wire Line
	4600 2250 4600 2750
Wire Wire Line
	4200 2550 4700 2550
Wire Wire Line
	5000 3250 5000 2750
Wire Wire Line
	5000 1950 5000 2250
Wire Wire Line
	5000 2250 5000 2350
Wire Wire Line
	4800 2050 4800 2250
Wire Wire Line
	4800 2250 5000 2250
Connection ~ 5000 2250
Wire Wire Line
	4400 1550 4400 1650
Wire Wire Line
	4400 1650 4400 1750
Wire Wire Line
	4800 1650 4800 1750
Wire Wire Line
	4400 2050 4400 2250
Wire Wire Line
	4400 2250 4600 2250
Connection ~ 4600 2250
Wire Wire Line
	5350 2850 5350 3150
Wire Wire Line
	5350 3150 5350 3450
Wire Wire Line
	6800 2850 5350 2850
Wire Wire Line
	6800 3650 6800 2850
Wire Wire Line
	6950 3650 6800 3650
Wire Wire Line
	6500 3250 6500 3550
Connection ~ 6500 3250
Wire Wire Line
	6500 3550 6400 3550
Wire Wire Line
	5600 4050 5000 4050
Wire Wire Line
	6850 3550 6950 3550
Wire Wire Line
	5350 3450 5600 3450
Wire Wire Line
	6400 3250 6500 3250
Wire Wire Line
	6500 3250 6850 3250
Wire Wire Line
	5350 3150 5600 3150
Wire Wire Line
	6850 3250 6850 3550
Connection ~ 5350 3150
Wire Wire Line
	4400 1650 4800 1650
Wire Wire Line
	4800 1650 5600 1650
Wire Wire Line
	5350 750  5350 1050
Wire Wire Line
	5350 1050 5350 1350
Wire Wire Line
	6800 750  5350 750 
Wire Wire Line
	6800 1550 6800 750 
Wire Wire Line
	6950 1550 6800 1550
Wire Wire Line
	6500 1150 6500 1450
Connection ~ 6500 1150
Wire Wire Line
	6500 1450 6400 1450
Wire Wire Line
	4600 1550 5600 1550
Wire Wire Line
	5600 1950 5000 1950
Wire Wire Line
	6850 1450 6950 1450
Wire Wire Line
	5350 1350 5600 1350
Wire Wire Line
	6400 1150 6500 1150
Wire Wire Line
	6500 1150 6850 1150
Wire Wire Line
	5350 1050 5600 1050
Wire Wire Line
	6850 1150 6850 1450
Connection ~ 5350 1050
Wire Wire Line
	4600 3650 5600 3650
Wire Wire Line
	4400 3750 4800 3750
Wire Wire Line
	4800 3750 5600 3750
Wire Wire Line
	4600 5750 5600 5750
Wire Wire Line
	4400 5850 4800 5850
Wire Wire Line
	4800 5850 5600 5850
Wire Wire Line
	5600 6150 5000 6150
Wire Wire Line
	1550 6650 1650 6650
Wire Wire Line
	3300 5600 3400 5600
Wire Wire Line
	3400 5600 3400 2550
Wire Wire Line
	3400 2550 3900 2550
Wire Wire Line
	3500 2950 3500 5700
Wire Wire Line
	3500 5700 3300 5700
Wire Wire Line
	3300 5800 3600 5800
Wire Wire Line
	3600 5800 3600 4650
Wire Wire Line
	3600 4650 3900 4650
Wire Wire Line
	3900 5050 3700 5050
Wire Wire Line
	3700 5050 3700 5900
Wire Wire Line
	3700 5900 3300 5900
Wire Wire Line
	3300 6000 3700 6000
Wire Wire Line
	3700 6000 3700 6750
Wire Wire Line
	3700 6750 3900 6750
Wire Wire Line
	3300 6100 3600 6100
Wire Wire Line
	3600 6100 3600 7150
Wire Wire Line
	3600 7150 3900 7150
Wire Wire Line
	3300 6200 3500 6200
Wire Wire Line
	3500 6200 3500 8850
Wire Wire Line
	3500 8850 3900 8850
Wire Wire Line
	3300 6300 3400 6300
Wire Wire Line
	3400 6300 3400 9250
Wire Wire Line
	3400 9250 3900 9250
Wire Wire Line
	3500 2950 3900 2950
Wire Wire Line
	2050 6650 2050 6750
Wire Wire Line
	2050 6750 2050 6850
Wire Wire Line
	1750 6750 2050 6750
Wire Wire Line
	2050 6750 2250 6750
Connection ~ 1750 6750
Wire Wire Line
	2250 6750 2250 6850
Connection ~ 2050 6750
Wire Wire Line
	2050 7150 2050 7250
Connection ~ 2050 7250
Wire Wire Line
	2250 7150 2250 7350
Connection ~ 2250 7350
Wire Wire Line
	1800 5100 1800 5300
Wire Wire Line
	1800 5300 1800 5450
Wire Wire Line
	1800 5450 1800 5600
Wire Wire Line
	1800 5300 1750 5300
Wire Wire Line
	1800 5450 1750 5450
Connection ~ 1800 5300
Wire Wire Line
	1800 5600 1750 5600
Connection ~ 1800 5450
Wire Wire Line
	1450 5300 1350 5300
Wire Wire Line
	1350 5300 1350 5450
Wire Wire Line
	1350 5450 1350 5600
Wire Wire Line
	1350 5600 1350 5700
Wire Wire Line
	1450 5600 1350 5600
Connection ~ 1350 5600
Wire Wire Line
	1450 5450 1350 5450
Connection ~ 1350 5450
Wire Wire Line
	2650 5050 2650 5150
Wire Wire Line
	2650 7250 2650 6750
Wire Wire Line
	2550 7350 2550 6750
Wire Wire Line
	2200 5550 2050 5550
Wire Wire Line
	1600 5350 2050 5350
Wire Wire Line
	1600 5650 1950 5650
Wire Wire Line
	1950 5750 2200 5750
Wire Wire Line
	2750 7450 2750 7350
Connection ~ 1650 7450
Wire Wire Line
	1750 6750 1550 6750
Wire Wire Line
	1650 6950 1650 6850
Wire Wire Line
	1650 6850 1550 6850
Wire Wire Line
	1650 6650 1650 6550
Wire Wire Line
	1950 5650 1950 5750
Wire Wire Line
	2200 5650 2000 5650
Wire Wire Line
	2000 5650 2000 5500
Wire Wire Line
	2000 5500 1600 5500
Wire Wire Line
	2050 5350 2050 5550
$EndSCHEMATC
